LECROYWR620Zi,62897,Histogram
Segments,1,SegmentSize,628
Segment,TrigTime,TimeSinceSegment1
#1,23-Feb-2018 15:08:33,0                 
Time,Ampl
-1e-006,0
-9.98e-007,0
-9.96e-007,0
-9.94e-007,0
-9.92e-007,0
-9.9e-007,0
-9.88e-007,0
-9.86e-007,0
-9.84e-007,0
-9.82e-007,0
-9.8e-007,0
-9.78e-007,0
-9.76e-007,0
-9.74e-007,0
-9.72e-007,0
-9.7e-007,0
-9.68e-007,0
-9.66e-007,0
-9.64e-007,0
-9.62e-007,0
-9.6e-007,0
-9.58e-007,0
-9.56e-007,0
-9.54e-007,0
-9.52e-007,0
-9.5e-007,0
-9.48e-007,0
-9.46e-007,0
-9.44e-007,0
-9.42e-007,0
-9.4e-007,0
-9.38e-007,0
-9.36e-007,0
-9.34e-007,0
-9.32e-007,0
-9.3e-007,0
-9.28e-007,0
-9.26e-007,0
-9.24e-007,0
-9.22e-007,0
-9.2e-007,0
-9.18e-007,0
-9.16e-007,0
-9.14e-007,0
-9.12e-007,0
-9.1e-007,0
-9.08e-007,0
-9.06e-007,0
-9.04e-007,0
-9.02e-007,0
-9e-007,0
-8.98e-007,0
-8.96e-007,0
-8.94e-007,0
-8.92e-007,0
-8.9e-007,0
-8.88e-007,0
-8.86e-007,1
-8.84e-007,0
-8.82e-007,0
-8.8e-007,1
-8.78e-007,0
-8.76e-007,0
-8.74e-007,0
-8.72e-007,0
-8.7e-007,0
-8.68e-007,0
-8.66e-007,0
-8.64e-007,0
-8.62e-007,0
-8.6e-007,0
-8.58e-007,0
-8.56e-007,0
-8.54e-007,0
-8.52e-007,0
-8.5e-007,1
-8.48e-007,0
-8.46e-007,1
-8.44e-007,0
-8.42e-007,0
-8.4e-007,0
-8.38e-007,0
-8.36e-007,0
-8.34e-007,1
-8.32e-007,0
-8.3e-007,0
-8.28e-007,0
-8.26e-007,0
-8.24e-007,0
-8.22e-007,1
-8.2e-007,2
-8.18e-007,3
-8.16e-007,1
-8.14e-007,4
-8.12e-007,3
-8.1e-007,2
-8.08e-007,2
-8.06e-007,3
-8.04e-007,0
-8.02e-007,2
-8e-007,3
-7.98e-007,8
-7.96e-007,5
-7.94e-007,5
-7.92e-007,6
-7.9e-007,7
-7.88e-007,10
-7.86e-007,15
-7.84e-007,15
-7.82e-007,12
-7.8e-007,17
-7.78e-007,21
-7.76e-007,25
-7.74e-007,25
-7.72e-007,33
-7.7e-007,37
-7.68e-007,45
-7.66e-007,47
-7.64e-007,55
-7.62e-007,61
-7.6e-007,67
-7.58e-007,88
-7.56e-007,93
-7.54e-007,95
-7.52e-007,136
-7.5e-007,97
-7.48e-007,111
-7.46e-007,125
-7.44e-007,128
-7.42e-007,117
-7.4e-007,111
-7.38e-007,90
-7.36e-007,100
-7.34e-007,81
-7.32e-007,86
-7.3e-007,70
-7.28e-007,75
-7.26e-007,65
-7.24e-007,63
-7.22e-007,48
-7.2e-007,48
-7.18e-007,49
-7.16e-007,52
-7.14e-007,49
-7.12e-007,35
-7.1e-007,36
-7.08e-007,50
-7.06e-007,40
-7.04e-007,44
-7.02e-007,49
-7e-007,36
-6.98e-007,45
-6.96e-007,37
-6.94e-007,32
-6.92e-007,38
-6.9e-007,37
-6.88e-007,43
-6.86e-007,30
-6.84e-007,32
-6.82e-007,48
-6.8e-007,27
-6.78e-007,45
-6.76e-007,41
-6.74e-007,39
-6.72e-007,27
-6.7e-007,40
-6.68e-007,48
-6.66e-007,39
-6.64e-007,25
-6.62e-007,43
-6.6e-007,39
-6.58e-007,39
-6.56e-007,51
-6.54e-007,34
-6.52e-007,44
-6.5e-007,34
-6.48e-007,34
-6.46e-007,38
-6.44e-007,37
-6.42e-007,30
-6.4e-007,43
-6.38e-007,38
-6.36e-007,44
-6.34e-007,42
-6.32e-007,38
-6.3e-007,47
-6.28e-007,45
-6.26e-007,45
-6.24e-007,59
-6.22e-007,51
-6.2e-007,61
-6.18e-007,59
-6.16e-007,74
-6.14e-007,65
-6.12e-007,80
-6.1e-007,62
-6.08e-007,74
-6.06e-007,99
-6.04e-007,94
-6.02e-007,101
-6e-007,93
-5.98e-007,128
-5.96e-007,127
-5.94e-007,129
-5.92e-007,158
-5.9e-007,187
-5.88e-007,161
-5.86e-007,194
-5.84e-007,222
-5.82e-007,261
-5.8e-007,257
-5.78e-007,310
-5.76e-007,335
-5.74e-007,331
-5.72e-007,380
-5.7e-007,451
-5.68e-007,443
-5.66e-007,510
-5.64e-007,574
-5.62e-007,626
-5.6e-007,653
-5.58e-007,697
-5.56e-007,724
-5.54e-007,848
-5.52e-007,852
-5.5e-007,922
-5.48e-007,972
-5.46e-007,1010
-5.44e-007,973
-5.42e-007,1083
-5.4e-007,1121
-5.38e-007,1201
-5.36e-007,1122
-5.34e-007,1124
-5.32e-007,1199
-5.3e-007,1129
-5.28e-007,1094
-5.26e-007,1032
-5.24e-007,1090
-5.22e-007,1059
-5.2e-007,1049
-5.18e-007,972
-5.16e-007,947
-5.14e-007,920
-5.12e-007,909
-5.1e-007,908
-5.08e-007,826
-5.06e-007,910
-5.04e-007,869
-5.02e-007,883
-5e-007,975
-4.98e-007,969
-4.96e-007,966
-4.94e-007,996
-4.92e-007,1078
-4.9e-007,1101
-4.88e-007,1096
-4.86e-007,1106
-4.84e-007,1174
-4.82e-007,1258
-4.8e-007,1203
-4.78e-007,1288
-4.76e-007,1355
-4.74e-007,1344
-4.72e-007,1359
-4.7e-007,1368
-4.68e-007,1349
-4.66e-007,1302
-4.64e-007,1283
-4.62e-007,1223
-4.6e-007,1133
-4.58e-007,1092
-4.56e-007,1081
-4.54e-007,1038
-4.52e-007,983
-4.5e-007,860
-4.48e-007,820
-4.46e-007,866
-4.44e-007,702
-4.42e-007,669
-4.4e-007,602
-4.38e-007,621
-4.36e-007,612
-4.34e-007,589
-4.32e-007,560
-4.3e-007,481
-4.28e-007,486
-4.26e-007,502
-4.24e-007,467
-4.22e-007,457
-4.2e-007,489
-4.18e-007,483
-4.16e-007,469
-4.14e-007,479
-4.12e-007,514
-4.1e-007,475
-4.08e-007,488
-4.06e-007,490
-4.04e-007,502
-4.02e-007,465
-4e-007,510
-3.98e-007,523
-3.96e-007,550
-3.94e-007,523
-3.92e-007,536
-3.9e-007,554
-3.88e-007,539
-3.86e-007,633
-3.84e-007,550
-3.82e-007,604
-3.8e-007,616
-3.78e-007,606
-3.76e-007,619
-3.74e-007,627
-3.72e-007,639
-3.7e-007,675
-3.68e-007,672
-3.66e-007,662
-3.64e-007,683
-3.62e-007,679
-3.6e-007,666
-3.58e-007,659
-3.56e-007,662
-3.54e-007,643
-3.52e-007,732
-3.5e-007,706
-3.48e-007,718
-3.46e-007,724
-3.44e-007,741
-3.42e-007,748
-3.4e-007,774
-3.38e-007,708
-3.36e-007,686
-3.34e-007,680
-3.32e-007,738
-3.3e-007,631
-3.28e-007,727
-3.26e-007,717
-3.24e-007,648
-3.22e-007,700
-3.2e-007,723
-3.18e-007,689
-3.16e-007,699
-3.14e-007,685
-3.12e-007,660
-3.1e-007,666
-3.08e-007,677
-3.06e-007,733
-3.04e-007,657
-3.02e-007,699
-3e-007,729
-2.98e-007,744
-2.96e-007,708
-2.94e-007,809
-2.92e-007,788
-2.9e-007,794
-2.88e-007,816
-2.86e-007,837
-2.84e-007,837
-2.82e-007,852
-2.8e-007,849
-2.78e-007,920
-2.76e-007,960
-2.74e-007,951
-2.72e-007,1040
-2.7e-007,1038
-2.68e-007,1141
-2.66e-007,1113
-2.64e-007,1196
-2.62e-007,1242
-2.6e-007,1176
-2.58e-007,1205
-2.56e-007,1208
-2.54e-007,1305
-2.52e-007,1223
-2.5e-007,1230
-2.48e-007,1191
-2.46e-007,1167
-2.44e-007,1141
-2.42e-007,1107
-2.4e-007,1087
-2.38e-007,1075
-2.36e-007,1016
-2.34e-007,946
-2.32e-007,943
-2.3e-007,909
-2.28e-007,838
-2.26e-007,857
-2.24e-007,783
-2.22e-007,781
-2.2e-007,740
-2.18e-007,725
-2.16e-007,709
-2.14e-007,744
-2.12e-007,736
-2.1e-007,717
-2.08e-007,725
-2.06e-007,742
-2.04e-007,722
-2.02e-007,697
-2e-007,718
-1.98e-007,714
-1.96e-007,704
-1.94e-007,700
-1.92e-007,647
-1.9e-007,749
-1.88e-007,704
-1.86e-007,725
-1.84e-007,697
-1.82e-007,750
-1.8e-007,745
-1.78e-007,706
-1.76e-007,666
-1.74e-007,756
-1.72e-007,752
-1.7e-007,718
-1.68e-007,675
-1.66e-007,694
-1.64e-007,740
-1.62e-007,792
-1.6e-007,716
-1.58e-007,749
-1.56e-007,699
-1.54e-007,745
-1.52e-007,769
-1.5e-007,749
-1.48e-007,784
-1.46e-007,730
-1.44e-007,697
-1.42e-007,729
-1.4e-007,694
-1.38e-007,669
-1.36e-007,725
-1.34e-007,676
-1.32e-007,725
-1.3e-007,645
-1.28e-007,656
-1.26e-007,628
-1.24e-007,617
-1.22e-007,596
-1.2e-007,585
-1.18e-007,533
-1.16e-007,557
-1.14e-007,505
-1.12e-007,505
-1.1e-007,489
-1.08e-007,423
-1.06e-007,417
-1.04e-007,426
-1.02e-007,368
-1e-007,336
-9.8e-008,337
-9.6e-008,297
-9.4e-008,268
-9.2e-008,217
-9e-008,210
-8.8e-008,190
-8.6e-008,187
-8.4e-008,145
-8.2e-008,130
-8e-008,108
-7.8e-008,99
-7.6e-008,69
-7.4e-008,63
-7.2e-008,61
-7e-008,32
-6.8e-008,34
-6.6e-008,27
-6.4e-008,24
-6.2e-008,19
-6e-008,6
-5.8e-008,4
-5.6e-008,8
-5.4e-008,2
-5.2e-008,1
-5e-008,2
-4.8e-008,0
-4.6e-008,1
-4.4e-008,1
-4.2e-008,0
-4e-008,0
-3.8e-008,0
-3.6e-008,0
-3.4e-008,0
-3.2e-008,0
-3e-008,0
-2.8e-008,0
-2.6e-008,0
-2.4e-008,0
-2.2e-008,0
-2e-008,0
-1.8e-008,0
-1.6e-008,0
-1.4e-008,0
-1.2e-008,0
-1e-008,0
-8e-009,0
-6e-009,0
-4e-009,0
-2e-009,0
7.577e-021,0
2e-009,0
4e-009,0
6e-009,0
8e-009,0
1e-008,0
1.2e-008,0
1.4e-008,0
1.6e-008,0
1.8e-008,0
2e-008,0
2.2e-008,0
2.4e-008,0
2.6e-008,0
2.8e-008,0
3e-008,0
3.2e-008,0
3.4e-008,0
3.6e-008,0
3.8e-008,0
4e-008,0
4.2e-008,0
4.4e-008,0
4.6e-008,0
4.8e-008,0
5e-008,0
5.2e-008,0
5.4e-008,0
5.6e-008,0
5.8e-008,0
6e-008,0
6.2e-008,0
6.4e-008,0
6.6e-008,0
6.8e-008,0
7e-008,0
7.2e-008,0
7.4e-008,0
7.6e-008,0
7.8e-008,0
8e-008,0
8.2e-008,0
8.4e-008,0
8.6e-008,0
8.8e-008,0
9e-008,0
9.2e-008,0
9.4e-008,0
9.6e-008,0
9.8e-008,0
1e-007,0
1.02e-007,0
1.04e-007,0
1.06e-007,0
1.08e-007,0
1.1e-007,0
1.12e-007,0
1.14e-007,0
1.16e-007,0
1.18e-007,0
1.2e-007,0
1.22e-007,0
1.24e-007,0
1.26e-007,0
1.28e-007,0
1.3e-007,0
1.32e-007,0
1.34e-007,0
1.36e-007,0
1.38e-007,0
1.4e-007,0
1.42e-007,0
1.44e-007,0
1.46e-007,0
1.48e-007,0
1.5e-007,0
1.52e-007,0
1.54e-007,0
1.56e-007,0
1.58e-007,0
1.6e-007,0
1.62e-007,0
1.64e-007,0
1.66e-007,0
1.68e-007,0
1.7e-007,0
1.72e-007,0
1.74e-007,0
1.76e-007,0
1.78e-007,0
1.8e-007,0
1.82e-007,0
1.84e-007,0
1.86e-007,0
1.88e-007,0
1.9e-007,0
1.92e-007,0
1.94e-007,0
1.96e-007,0
1.98e-007,0
2e-007,0
2.02e-007,0
2.04e-007,0
2.06e-007,0
2.08e-007,0
2.1e-007,0
2.12e-007,0
2.14e-007,0
2.16e-007,0
2.18e-007,0
2.2e-007,0
2.22e-007,0
2.24e-007,0
2.26e-007,0
2.28e-007,0
2.3e-007,0
2.32e-007,0
2.34e-007,0
2.36e-007,0
2.38e-007,0
2.4e-007,0
2.42e-007,0
2.44e-007,0
2.46e-007,0
2.48e-007,0
2.5e-007,0
2.52e-007,0
2.54e-007,0
