LECROYWR620Zi,62897,Histogram
Segments,1,SegmentSize,628
Segment,TrigTime,TimeSinceSegment1
#1,23-Feb-2018 15:08:33,0                 
Time,Ampl
-1e-006,0
-9.98e-007,0
-9.96e-007,0
-9.94e-007,0
-9.92e-007,0
-9.9e-007,0
-9.88e-007,0
-9.86e-007,0
-9.84e-007,0
-9.82e-007,0
-9.8e-007,0
-9.78e-007,0
-9.76e-007,0
-9.74e-007,0
-9.72e-007,0
-9.7e-007,0
-9.68e-007,0
-9.66e-007,0
-9.64e-007,0
-9.62e-007,0
-9.6e-007,0
-9.58e-007,0
-9.56e-007,0
-9.54e-007,0
-9.52e-007,0
-9.5e-007,0
-9.48e-007,0
-9.46e-007,0
-9.44e-007,0
-9.42e-007,0
-9.4e-007,0
-9.38e-007,0
-9.36e-007,0
-9.34e-007,0
-9.32e-007,0
-9.3e-007,0
-9.28e-007,0
-9.26e-007,0
-9.24e-007,0
-9.22e-007,0
-9.2e-007,0
-9.18e-007,0
-9.16e-007,0
-9.14e-007,0
-9.12e-007,0
-9.1e-007,0
-9.08e-007,0
-9.06e-007,0
-9.04e-007,0
-9.02e-007,0
-9e-007,0
-8.98e-007,0
-8.96e-007,0
-8.94e-007,0
-8.92e-007,0
-8.9e-007,0
-8.88e-007,0
-8.86e-007,0
-8.84e-007,0
-8.82e-007,0
-8.8e-007,0
-8.78e-007,0
-8.76e-007,0
-8.74e-007,0
-8.72e-007,0
-8.7e-007,0
-8.68e-007,0
-8.66e-007,0
-8.64e-007,0
-8.62e-007,0
-8.6e-007,0
-8.58e-007,0
-8.56e-007,0
-8.54e-007,0
-8.52e-007,0
-8.5e-007,0
-8.48e-007,0
-8.46e-007,0
-8.44e-007,0
-8.42e-007,0
-8.4e-007,0
-8.38e-007,0
-8.36e-007,0
-8.34e-007,0
-8.32e-007,0
-8.3e-007,0
-8.28e-007,0
-8.26e-007,0
-8.24e-007,0
-8.22e-007,0
-8.2e-007,0
-8.18e-007,0
-8.16e-007,0
-8.14e-007,1
-8.12e-007,1
-8.1e-007,1
-8.08e-007,1
-8.06e-007,2
-8.04e-007,0
-8.02e-007,0
-8e-007,0
-7.98e-007,2
-7.96e-007,1
-7.94e-007,1
-7.92e-007,2
-7.9e-007,1
-7.88e-007,1
-7.86e-007,1
-7.84e-007,3
-7.82e-007,3
-7.8e-007,1
-7.78e-007,2
-7.76e-007,3
-7.74e-007,3
-7.72e-007,3
-7.7e-007,5
-7.68e-007,5
-7.66e-007,5
-7.64e-007,5
-7.62e-007,5
-7.6e-007,12
-7.58e-007,11
-7.56e-007,13
-7.54e-007,8
-7.52e-007,11
-7.5e-007,9
-7.48e-007,10
-7.46e-007,15
-7.44e-007,14
-7.42e-007,6
-7.4e-007,7
-7.38e-007,11
-7.36e-007,3
-7.34e-007,7
-7.32e-007,5
-7.3e-007,12
-7.28e-007,7
-7.26e-007,6
-7.24e-007,9
-7.22e-007,1
-7.2e-007,7
-7.18e-007,7
-7.16e-007,8
-7.14e-007,8
-7.12e-007,5
-7.1e-007,2
-7.08e-007,8
-7.06e-007,2
-7.04e-007,5
-7.02e-007,2
-7e-007,5
-6.98e-007,8
-6.96e-007,3
-6.94e-007,3
-6.92e-007,7
-6.9e-007,3
-6.88e-007,2
-6.86e-007,4
-6.84e-007,6
-6.82e-007,5
-6.8e-007,4
-6.78e-007,2
-6.76e-007,7
-6.74e-007,8
-6.72e-007,5
-6.7e-007,5
-6.68e-007,2
-6.66e-007,5
-6.64e-007,2
-6.62e-007,3
-6.6e-007,3
-6.58e-007,3
-6.56e-007,6
-6.54e-007,5
-6.52e-007,2
-6.5e-007,2
-6.48e-007,1
-6.46e-007,2
-6.44e-007,3
-6.42e-007,2
-6.4e-007,4
-6.38e-007,6
-6.36e-007,11
-6.34e-007,10
-6.32e-007,2
-6.3e-007,2
-6.28e-007,7
-6.26e-007,4
-6.24e-007,10
-6.22e-007,9
-6.2e-007,10
-6.18e-007,9
-6.16e-007,14
-6.14e-007,6
-6.12e-007,9
-6.1e-007,5
-6.08e-007,13
-6.06e-007,13
-6.04e-007,10
-6.02e-007,8
-6e-007,8
-5.98e-007,18
-5.96e-007,15
-5.94e-007,9
-5.92e-007,14
-5.9e-007,31
-5.88e-007,14
-5.86e-007,19
-5.84e-007,22
-5.82e-007,19
-5.8e-007,30
-5.78e-007,42
-5.76e-007,35
-5.74e-007,35
-5.72e-007,43
-5.7e-007,65
-5.68e-007,50
-5.66e-007,59
-5.64e-007,66
-5.62e-007,68
-5.6e-007,87
-5.58e-007,82
-5.56e-007,85
-5.54e-007,100
-5.52e-007,97
-5.5e-007,94
-5.48e-007,110
-5.46e-007,113
-5.44e-007,98
-5.42e-007,110
-5.4e-007,107
-5.38e-007,132
-5.36e-007,144
-5.34e-007,129
-5.32e-007,163
-5.3e-007,129
-5.28e-007,119
-5.26e-007,106
-5.24e-007,143
-5.22e-007,102
-5.2e-007,102
-5.18e-007,84
-5.16e-007,105
-5.14e-007,87
-5.12e-007,86
-5.1e-007,110
-5.08e-007,94
-5.06e-007,101
-5.04e-007,90
-5.02e-007,110
-5e-007,100
-4.98e-007,97
-4.96e-007,110
-4.94e-007,92
-4.92e-007,124
-4.9e-007,101
-4.88e-007,111
-4.86e-007,111
-4.84e-007,127
-4.82e-007,125
-4.8e-007,136
-4.78e-007,147
-4.76e-007,150
-4.74e-007,145
-4.72e-007,151
-4.7e-007,157
-4.68e-007,144
-4.66e-007,147
-4.64e-007,144
-4.62e-007,147
-4.6e-007,135
-4.58e-007,116
-4.56e-007,122
-4.54e-007,119
-4.52e-007,89
-4.5e-007,83
-4.48e-007,93
-4.46e-007,107
-4.44e-007,70
-4.42e-007,67
-4.4e-007,81
-4.38e-007,60
-4.36e-007,63
-4.34e-007,67
-4.32e-007,49
-4.3e-007,47
-4.28e-007,56
-4.26e-007,51
-4.24e-007,42
-4.22e-007,53
-4.2e-007,60
-4.18e-007,60
-4.16e-007,66
-4.14e-007,43
-4.12e-007,60
-4.1e-007,47
-4.08e-007,49
-4.06e-007,51
-4.04e-007,51
-4.02e-007,55
-4e-007,56
-3.98e-007,60
-3.96e-007,66
-3.94e-007,54
-3.92e-007,56
-3.9e-007,55
-3.88e-007,56
-3.86e-007,88
-3.84e-007,69
-3.82e-007,79
-3.8e-007,78
-3.78e-007,52
-3.76e-007,68
-3.74e-007,74
-3.72e-007,67
-3.7e-007,78
-3.68e-007,66
-3.66e-007,74
-3.64e-007,77
-3.62e-007,73
-3.6e-007,81
-3.58e-007,62
-3.56e-007,72
-3.54e-007,91
-3.52e-007,89
-3.5e-007,82
-3.48e-007,74
-3.46e-007,67
-3.44e-007,71
-3.42e-007,84
-3.4e-007,81
-3.38e-007,86
-3.36e-007,74
-3.34e-007,86
-3.32e-007,82
-3.3e-007,73
-3.28e-007,73
-3.26e-007,69
-3.24e-007,74
-3.22e-007,67
-3.2e-007,69
-3.18e-007,75
-3.16e-007,86
-3.14e-007,79
-3.12e-007,52
-3.1e-007,67
-3.08e-007,66
-3.06e-007,91
-3.04e-007,75
-3.02e-007,99
-3e-007,70
-2.98e-007,89
-2.96e-007,75
-2.94e-007,101
-2.92e-007,72
-2.9e-007,88
-2.88e-007,84
-2.86e-007,97
-2.84e-007,105
-2.82e-007,99
-2.8e-007,83
-2.78e-007,98
-2.76e-007,104
-2.74e-007,95
-2.72e-007,128
-2.7e-007,111
-2.68e-007,121
-2.66e-007,135
-2.64e-007,114
-2.62e-007,135
-2.6e-007,124
-2.58e-007,136
-2.56e-007,131
-2.54e-007,134
-2.52e-007,111
-2.5e-007,126
-2.48e-007,133
-2.46e-007,125
-2.44e-007,111
-2.42e-007,119
-2.4e-007,131
-2.38e-007,124
-2.36e-007,91
-2.34e-007,103
-2.32e-007,89
-2.3e-007,85
-2.28e-007,75
-2.26e-007,100
-2.24e-007,89
-2.22e-007,80
-2.2e-007,95
-2.18e-007,92
-2.16e-007,71
-2.14e-007,67
-2.12e-007,76
-2.1e-007,92
-2.08e-007,86
-2.06e-007,73
-2.04e-007,74
-2.02e-007,77
-2e-007,71
-1.98e-007,77
-1.96e-007,88
-1.94e-007,83
-1.92e-007,74
-1.9e-007,90
-1.88e-007,74
-1.86e-007,73
-1.84e-007,82
-1.82e-007,85
-1.8e-007,73
-1.78e-007,53
-1.76e-007,78
-1.74e-007,78
-1.72e-007,85
-1.7e-007,75
-1.68e-007,70
-1.66e-007,82
-1.64e-007,71
-1.62e-007,85
-1.6e-007,70
-1.58e-007,81
-1.56e-007,76
-1.54e-007,76
-1.52e-007,72
-1.5e-007,74
-1.48e-007,70
-1.46e-007,88
-1.44e-007,54
-1.42e-007,76
-1.4e-007,80
-1.38e-007,64
-1.36e-007,75
-1.34e-007,77
-1.32e-007,105
-1.3e-007,52
-1.28e-007,74
-1.26e-007,65
-1.24e-007,75
-1.22e-007,55
-1.2e-007,72
-1.18e-007,70
-1.16e-007,51
-1.14e-007,62
-1.12e-007,47
-1.1e-007,57
-1.08e-007,55
-1.06e-007,52
-1.04e-007,38
-1.02e-007,40
-1e-007,36
-9.8e-008,35
-9.6e-008,31
-9.4e-008,25
-9.2e-008,15
-9e-008,25
-8.8e-008,17
-8.6e-008,27
-8.4e-008,9
-8.2e-008,15
-8e-008,11
-7.8e-008,9
-7.6e-008,9
-7.4e-008,6
-7.2e-008,1
-7e-008,3
-6.8e-008,8
-6.6e-008,1
-6.4e-008,1
-6.2e-008,0
-6e-008,0
-5.8e-008,0
-5.6e-008,0
-5.4e-008,1
-5.2e-008,0
-5e-008,0
-4.8e-008,0
-4.6e-008,0
-4.4e-008,0
-4.2e-008,0
-4e-008,0
-3.8e-008,0
-3.6e-008,0
-3.4e-008,0
-3.2e-008,0
-3e-008,0
-2.8e-008,0
-2.6e-008,0
-2.4e-008,0
-2.2e-008,0
-2e-008,0
-1.8e-008,0
-1.6e-008,0
-1.4e-008,0
-1.2e-008,0
-1e-008,0
-8e-009,0
-6e-009,0
-4e-009,0
-2e-009,0
7.577e-021,0
2e-009,0
4e-009,0
6e-009,0
8e-009,0
1e-008,0
1.2e-008,0
1.4e-008,0
1.6e-008,0
1.8e-008,0
2e-008,0
2.2e-008,0
2.4e-008,0
2.6e-008,0
2.8e-008,0
3e-008,0
3.2e-008,0
3.4e-008,0
3.6e-008,0
3.8e-008,0
4e-008,0
4.2e-008,0
4.4e-008,0
4.6e-008,0
4.8e-008,0
5e-008,0
5.2e-008,0
5.4e-008,0
5.6e-008,0
5.8e-008,0
6e-008,0
6.2e-008,0
6.4e-008,0
6.6e-008,0
6.8e-008,0
7e-008,0
7.2e-008,0
7.4e-008,0
7.6e-008,0
7.8e-008,0
8e-008,0
8.2e-008,0
8.4e-008,0
8.6e-008,0
8.8e-008,0
9e-008,0
9.2e-008,0
9.4e-008,0
9.6e-008,0
9.8e-008,0
1e-007,0
1.02e-007,0
1.04e-007,0
1.06e-007,0
1.08e-007,0
1.1e-007,0
1.12e-007,0
1.14e-007,0
1.16e-007,0
1.18e-007,0
1.2e-007,0
1.22e-007,0
1.24e-007,0
1.26e-007,0
1.28e-007,0
1.3e-007,0
1.32e-007,0
1.34e-007,0
1.36e-007,0
1.38e-007,0
1.4e-007,0
1.42e-007,0
1.44e-007,0
1.46e-007,0
1.48e-007,0
1.5e-007,0
1.52e-007,0
1.54e-007,0
1.56e-007,0
1.58e-007,0
1.6e-007,0
1.62e-007,0
1.64e-007,0
1.66e-007,0
1.68e-007,0
1.7e-007,0
1.72e-007,0
1.74e-007,0
1.76e-007,0
1.78e-007,0
1.8e-007,0
1.82e-007,0
1.84e-007,0
1.86e-007,0
1.88e-007,0
1.9e-007,0
1.92e-007,0
1.94e-007,0
1.96e-007,0
1.98e-007,0
2e-007,0
2.02e-007,0
2.04e-007,0
2.06e-007,0
2.08e-007,0
2.1e-007,0
2.12e-007,0
2.14e-007,0
2.16e-007,0
2.18e-007,0
2.2e-007,0
2.22e-007,0
2.24e-007,0
2.26e-007,0
2.28e-007,0
2.3e-007,0
2.32e-007,0
2.34e-007,0
2.36e-007,0
2.38e-007,0
2.4e-007,0
2.42e-007,0
2.44e-007,0
2.46e-007,0
2.48e-007,0
2.5e-007,0
2.52e-007,0
2.54e-007,0
