#LECROYWR620Zi    62897,Histogram
#Segments    1,SegmentSize,1000
#Segment    TrigTime,TimeSinceSegment1
#1    23-Feb-2018 15:26:45,0                 
#time 1101
#Time    Ampl
-1e-007    0
-9.98e-008    0
-9.96e-008    0
-9.94e-008    0
-9.92e-008    0
-9.9e-008    0
-9.88e-008    0
-9.86e-008    1
-9.84e-008    0
-9.82e-008    0
-9.8e-008    0
-9.78e-008    1
-9.76e-008    0
-9.74e-008    0
-9.72e-008    0
-9.7e-008    0
-9.68e-008    0
-9.66e-008    0
-9.64e-008    0
-9.62e-008    0
-9.6e-008    0
-9.58e-008    0
-9.56e-008    1
-9.54e-008    0
-9.52e-008    0
-9.5e-008    0
-9.48e-008    2
-9.46e-008    0
-9.44e-008    0
-9.42e-008    0
-9.4e-008    0
-9.38e-008    0
-9.36e-008    0
-9.34e-008    1
-9.32e-008    0
-9.3e-008    0
-9.28e-008    0
-9.26e-008    0
-9.24e-008    0
-9.22e-008    0
-9.2e-008    0
-9.18e-008    0
-9.16e-008    1
-9.14e-008    0
-9.12e-008    0
-9.1e-008    0
-9.08e-008    0
-9.06e-008    1
-9.04e-008    0
-9.02e-008    0
-9e-008    0
-8.98e-008    0
-8.96e-008    0
-8.94e-008    0
-8.92e-008    1
-8.9e-008    0
-8.88e-008    0
-8.86e-008    0
-8.84e-008    1
-8.82e-008    0
-8.8e-008    0
-8.78e-008    0
-8.76e-008    0
-8.74e-008    0
-8.72e-008    0
-8.7e-008    0
-8.68e-008    0
-8.66e-008    0
-8.64e-008    0
-8.62e-008    0
-8.6e-008    0
-8.58e-008    0
-8.56e-008    0
-8.54e-008    0
-8.52e-008    0
-8.5e-008    0
-8.48e-008    0
-8.46e-008    0
-8.44e-008    0
-8.42e-008    0
-8.4e-008    0
-8.38e-008    1
-8.36e-008    0
-8.34e-008    0
-8.32e-008    0
-8.3e-008    0
-8.28e-008    0
-8.26e-008    0
-8.24e-008    0
-8.22e-008    0
-8.2e-008    2
-8.18e-008    0
-8.16e-008    0
-8.14e-008    0
-8.12e-008    1
-8.1e-008    0
-8.08e-008    0
-8.06e-008    0
-8.04e-008    0
-8.02e-008    0
-8e-008    0
-7.98e-008    0
-7.96e-008    0
-7.94e-008    0
-7.92e-008    0
-7.9e-008    1
-7.88e-008    0
-7.86e-008    0
-7.84e-008    0
-7.82e-008    0
-7.8e-008    0
-7.78e-008    0
-7.76e-008    0
-7.74e-008    1
-7.72e-008    0
-7.7e-008    0
-7.68e-008    0
-7.66e-008    0
-7.64e-008    0
-7.62e-008    0
-7.6e-008    0
-7.58e-008    0
-7.56e-008    0
-7.54e-008    0
-7.52e-008    1
-7.5e-008    0
-7.48e-008    0
-7.46e-008    0
-7.44e-008    0
-7.42e-008    0
-7.4e-008    0
-7.38e-008    0
-7.36e-008    1
-7.34e-008    0
-7.32e-008    0
-7.3e-008    0
-7.28e-008    1
-7.26e-008    0
-7.24e-008    0
-7.22e-008    0
-7.2e-008    0
-7.18e-008    0
-7.16e-008    0
-7.14e-008    0
-7.12e-008    1
-7.1e-008    0
-7.08e-008    0
-7.06e-008    0
-7.04e-008    0
-7.02e-008    0
-7e-008    0
-6.98e-008    0
-6.96e-008    0
-6.94e-008    0
-6.92e-008    0
-6.9e-008    0
-6.88e-008    0
-6.86e-008    1
-6.84e-008    0
-6.82e-008    0
-6.8e-008    0
-6.78e-008    0
-6.76e-008    0
-6.74e-008    1
-6.72e-008    0
-6.7e-008    0
-6.68e-008    0
-6.66e-008    0
-6.64e-008    0
-6.62e-008    0
-6.6e-008    0
-6.58e-008    0
-6.56e-008    0
-6.54e-008    0
-6.52e-008    0
-6.5e-008    0
-6.48e-008    0
-6.46e-008    1
-6.44e-008    0
-6.42e-008    1
-6.4e-008    0
-6.38e-008    0
-6.36e-008    0
-6.34e-008    0
-6.32e-008    0
-6.3e-008    0
-6.28e-008    0
-6.26e-008    0
-6.24e-008    1
-6.22e-008    0
-6.2e-008    1
-6.18e-008    0
-6.16e-008    0
-6.14e-008    0
-6.12e-008    0
-6.1e-008    1
-6.08e-008    1
-6.06e-008    0
-6.04e-008    0
-6.02e-008    0
-6e-008    0
-5.98e-008    0
-5.96e-008    0
-5.94e-008    0
-5.92e-008    1
-5.9e-008    1
-5.88e-008    0
-5.86e-008    0
-5.84e-008    0
-5.82e-008    0
-5.8e-008    0
-5.78e-008    0
-5.76e-008    0
-5.74e-008    0
-5.72e-008    0
-5.7e-008    0
-5.68e-008    0
-5.66e-008    0
-5.64e-008    0
-5.62e-008    1
-5.6e-008    0
-5.58e-008    0
-5.56e-008    0
-5.54e-008    0
-5.52e-008    0
-5.5e-008    0
-5.48e-008    1
-5.46e-008    0
-5.44e-008    1
-5.42e-008    1
-5.4e-008    1
-5.38e-008    1
-5.36e-008    0
-5.34e-008    0
-5.32e-008    1
-5.3e-008    0
-5.28e-008    0
-5.26e-008    0
-5.24e-008    0
-5.22e-008    0
-5.2e-008    0
-5.18e-008    0
-5.16e-008    0
-5.14e-008    2
-5.12e-008    0
-5.1e-008    0
-5.08e-008    0
-5.06e-008    0
-5.04e-008    0
-5.02e-008    0
-5e-008    0
-4.98e-008    0
-4.96e-008    0
-4.94e-008    0
-4.92e-008    1
-4.9e-008    0
-4.88e-008    1
-4.86e-008    0
-4.84e-008    0
-4.82e-008    0
-4.8e-008    0
-4.78e-008    1
-4.76e-008    0
-4.74e-008    1
-4.72e-008    0
-4.7e-008    1
-4.68e-008    2
-4.66e-008    0
-4.64e-008    0
-4.62e-008    0
-4.6e-008    0
-4.58e-008    1
-4.56e-008    0
-4.54e-008    0
-4.52e-008    0
-4.5e-008    0
-4.48e-008    0
-4.46e-008    0
-4.44e-008    0
-4.42e-008    0
-4.4e-008    2
-4.38e-008    0
-4.36e-008    1
-4.34e-008    0
-4.32e-008    0
-4.3e-008    0
-4.28e-008    0
-4.26e-008    0
-4.24e-008    0
-4.22e-008    0
-4.2e-008    0
-4.18e-008    0
-4.16e-008    0
-4.14e-008    0
-4.12e-008    0
-4.1e-008    1
-4.08e-008    0
-4.06e-008    0
-4.04e-008    0
-4.02e-008    0
-4e-008    0
-3.98e-008    0
-3.96e-008    0
-3.94e-008    0
-3.92e-008    0
-3.9e-008    0
-3.88e-008    0
-3.86e-008    0
-3.84e-008    0
-3.82e-008    0
-3.8e-008    0
-3.78e-008    1
-3.76e-008    0
-3.74e-008    1
-3.72e-008    0
-3.7e-008    1
-3.68e-008    0
-3.66e-008    1
-3.64e-008    0
-3.62e-008    1
-3.6e-008    1
-3.58e-008    0
-3.56e-008    0
-3.54e-008    0
-3.52e-008    0
-3.5e-008    0
-3.48e-008    2
-3.46e-008    0
-3.44e-008    1
-3.42e-008    0
-3.4e-008    0
-3.38e-008    0
-3.36e-008    0
-3.34e-008    0
-3.32e-008    0
-3.3e-008    0
-3.28e-008    0
-3.26e-008    0
-3.24e-008    0
-3.22e-008    0
-3.2e-008    0
-3.18e-008    0
-3.16e-008    0
-3.14e-008    0
-3.12e-008    0
-3.1e-008    0
-3.08e-008    0
-3.06e-008    0
-3.04e-008    0
-3.02e-008    0
-3e-008    0
-2.98e-008    0
-2.96e-008    0
-2.94e-008    0
-2.92e-008    1
-2.9e-008    0
-2.88e-008    0
-2.86e-008    2
-2.84e-008    0
-2.82e-008    0
-2.8e-008    1
-2.78e-008    0
-2.76e-008    0
-2.74e-008    2
-2.72e-008    1
-2.7e-008    0
-2.68e-008    0
-2.66e-008    1
-2.64e-008    0
-2.62e-008    0
-2.6e-008    0
-2.58e-008    0
-2.56e-008    1
-2.54e-008    0
-2.52e-008    0
-2.5e-008    0
-2.48e-008    0
-2.46e-008    0
-2.44e-008    0
-2.42e-008    0
-2.4e-008    1
-2.38e-008    0
-2.36e-008    0
-2.34e-008    0
-2.32e-008    2
-2.3e-008    0
-2.28e-008    0
-2.26e-008    0
-2.24e-008    0
-2.22e-008    1
-2.2e-008    1
-2.18e-008    2
-2.16e-008    0
-2.14e-008    3
-2.12e-008    1
-2.1e-008    2
-2.08e-008    1
-2.06e-008    0
-2.04e-008    0
-2.02e-008    2
-2e-008    0
-1.98e-008    0
-1.96e-008    1
-1.94e-008    0
-1.92e-008    0
-1.9e-008    0
-1.88e-008    1
-1.86e-008    1
-1.84e-008    0
-1.82e-008    1
-1.8e-008    0
-1.78e-008    2
-1.76e-008    1
-1.74e-008    3
-1.72e-008    1
-1.7e-008    3
-1.68e-008    2
-1.66e-008    3
-1.64e-008    4
-1.62e-008    1
-1.6e-008    2
-1.58e-008    2
-1.56e-008    2
-1.54e-008    5
-1.52e-008    6
-1.5e-008    6
-1.48e-008    4
-1.46e-008    5
-1.44e-008    1
-1.42e-008    5
-1.4e-008    5
-1.38e-008    3
-1.36e-008    7
-1.34e-008    7
-1.32e-008    8
-1.3e-008    5
-1.28e-008    6
-1.26e-008    6
-1.24e-008    4
-1.22e-008    12
-1.2e-008    5
-1.18e-008    10
-1.16e-008    9
-1.14e-008    10
-1.12e-008    11
-1.1e-008    11
-1.08e-008    10
-1.06e-008    14
-1.04e-008    16
-1.02e-008    18
-1e-008    17
-9.8e-009    7
-9.6e-009    14
-9.4e-009    24
-9.2e-009    22
-9e-009    15
-8.8e-009    18
-8.6e-009    25
-8.4e-009    30
-8.2e-009    18
-8e-009    22
-7.8e-009    19
-7.6e-009    31
-7.4e-009    38
-7.2e-009    38
-7e-009    43
-6.8e-009    42
-6.6e-009    24
-6.4e-009    40
-6.2e-009    32
-6e-009    42
-5.8e-009    44
-5.6e-009    36
-5.4e-009    47
-5.2e-009    46
-5e-009    45
-4.8e-009    65
-4.6e-009    59
-4.4e-009    62
-4.2e-009    61
-4e-009    60
-3.8e-009    49
-3.6e-009    51
-3.4e-009    60
-3.2e-009    56
-3e-009    66
-2.8e-009    62
-2.6e-009    60
-2.4e-009    79
-2.2e-009    82
-2e-009    70
-1.8e-009    69
-1.6e-009    77
-1.4e-009    87
-1.2e-009    85
-1e-009    80
-8e-010    93
-6e-010    97
-4e-010    102
-2e-010    96
5.258e-022    103
2e-010    105
4e-010    102
6e-010    108
8e-010    106
1e-009    97
1.2e-009    101
1.4e-009    112
1.6e-009    90
1.8e-009    95
2e-009    105
2.2e-009    122
2.4e-009    104
2.6e-009    124
2.8e-009    100
3e-009    101
3.2e-009    96
3.4e-009    104
3.6e-009    113
3.8e-009    118
4e-009    116
4.2e-009    121
4.4e-009    121
4.6e-009    117
4.8e-009    117
5e-009    121
5.2e-009    134
5.4e-009    118
5.6e-009    107
5.8e-009    125
6e-009    135
6.2e-009    113
6.4e-009    114
6.6e-009    132
6.8e-009    139
7e-009    124
7.2e-009    125
7.4e-009    135
7.6e-009    126
7.8e-009    125
8e-009    128
8.2e-009    123
8.4e-009    132
8.6e-009    140
8.8e-009    145
9e-009    126
9.2e-009    110
9.4e-009    126
9.6e-009    130
9.8e-009    131
1e-008    128
1.02e-008    129
1.04e-008    114
1.06e-008    128
1.08e-008    123
1.1e-008    131
1.12e-008    116
1.14e-008    121
1.16e-008    100
1.18e-008    102
1.2e-008    123
1.22e-008    112
1.24e-008    111
1.26e-008    110
1.28e-008    124
1.3e-008    115
1.32e-008    115
1.34e-008    132
1.36e-008    122
1.38e-008    113
1.4e-008    123
1.42e-008    117
1.44e-008    127
1.46e-008    109
1.48e-008    97
1.5e-008    109
1.52e-008    119
1.54e-008    118
1.56e-008    85
1.58e-008    118
1.6e-008    121
1.62e-008    108
1.64e-008    123
1.66e-008    99
1.68e-008    95
1.7e-008    108
1.72e-008    101
1.74e-008    100
1.76e-008    115
1.78e-008    107
1.8e-008    114
1.82e-008    112
1.84e-008    107
1.86e-008    121
1.88e-008    101
1.9e-008    124
1.92e-008    107
1.94e-008    91
1.96e-008    93
1.98e-008    98
2e-008    93
2.02e-008    101
2.04e-008    97
2.06e-008    94
2.08e-008    97
2.1e-008    88
2.12e-008    105
2.14e-008    99
2.16e-008    99
2.18e-008    97
2.2e-008    105
2.22e-008    113
2.24e-008    98
2.26e-008    105
2.28e-008    103
2.3e-008    91
2.32e-008    110
2.34e-008    111
2.36e-008    100
2.38e-008    120
2.4e-008    124
2.42e-008    119
2.44e-008    125
2.46e-008    113
2.48e-008    121
2.5e-008    129
2.52e-008    120
2.54e-008    126
2.56e-008    140
2.58e-008    112
2.6e-008    161
2.62e-008    132
2.64e-008    144
2.66e-008    154
2.68e-008    135
2.7e-008    150
2.72e-008    147
2.74e-008    168
2.76e-008    158
2.78e-008    157
2.8e-008    177
2.82e-008    182
2.84e-008    185
2.86e-008    186
2.88e-008    235
2.9e-008    215
2.92e-008    193
2.94e-008    212
2.96e-008    233
2.98e-008    225
3e-008    228
3.02e-008    245
3.04e-008    229
3.06e-008    244
3.08e-008    274
3.1e-008    235
3.12e-008    268
3.14e-008    265
3.16e-008    290
3.18e-008    317
3.2e-008    294
3.22e-008    269
3.24e-008    327
3.26e-008    324
3.28e-008    328
3.3e-008    346
3.32e-008    298
3.34e-008    362
3.36e-008    346
3.38e-008    359
3.4e-008    361
3.42e-008    381
3.44e-008    392
3.46e-008    403
3.48e-008    409
3.5e-008    398
3.52e-008    420
3.54e-008    432
3.56e-008    419
3.58e-008    448
3.6e-008    459
3.62e-008    448
3.64e-008    479
3.66e-008    474
3.68e-008    443
3.7e-008    474
3.72e-008    526
3.74e-008    518
3.76e-008    530
3.78e-008    494
3.8e-008    495
3.82e-008    551
3.84e-008    558
3.86e-008    540
3.88e-008    548
3.9e-008    536
3.92e-008    546
3.94e-008    547
3.96e-008    548
3.98e-008    597
4e-008    553
4.02e-008    570
4.04e-008    641
4.06e-008    629
4.08e-008    603
4.1e-008    616
4.12e-008    623
4.14e-008    617
4.16e-008    648
4.18e-008    662
4.2e-008    617
4.22e-008    625
4.24e-008    684
4.26e-008    663
4.28e-008    653
4.3e-008    678
4.32e-008    672
4.34e-008    665
4.36e-008    639
4.38e-008    668
4.4e-008    652
4.42e-008    651
4.44e-008    688
4.46e-008    649
4.48e-008    670
4.5e-008    622
4.52e-008    643
4.54e-008    693
4.56e-008    624
4.58e-008    663
4.6e-008    662
4.62e-008    636
4.64e-008    636
4.66e-008    683
4.68e-008    626
4.7e-008    645
4.72e-008    652
4.74e-008    638
4.76e-008    623
4.78e-008    670
4.8e-008    643
4.82e-008    613
4.84e-008    571
4.86e-008    632
4.88e-008    630
4.9e-008    603
4.92e-008    577
4.94e-008    605
4.96e-008    583
4.98e-008    595
5e-008    583
5.02e-008    581
5.04e-008    565
5.06e-008    542
5.08e-008    508
5.1e-008    546
5.12e-008    561
5.14e-008    541
5.16e-008    541
5.18e-008    502
5.2e-008    511
5.22e-008    533
5.24e-008    577
5.26e-008    515
5.28e-008    428
5.3e-008    461
5.32e-008    494
5.34e-008    509
5.36e-008    461
5.38e-008    485
5.4e-008    427
5.42e-008    444
5.44e-008    456
5.46e-008    411
5.48e-008    415
5.5e-008    421
5.52e-008    396
5.54e-008    419
5.56e-008    431
5.58e-008    402
5.6e-008    380
5.62e-008    352
5.64e-008    360
5.66e-008    367
5.68e-008    385
5.7e-008    350
5.72e-008    353
5.74e-008    348
5.76e-008    358
5.78e-008    343
5.8e-008    330
5.82e-008    320
5.84e-008    264
5.86e-008    267
5.88e-008    284
5.9e-008    307
5.92e-008    290
5.94e-008    254
5.96e-008    300
5.98e-008    273
6e-008    246
6.02e-008    248
6.04e-008    244
6.06e-008    244
6.08e-008    228
6.1e-008    225
6.12e-008    227
6.14e-008    239
6.16e-008    234
6.18e-008    208
6.2e-008    222
6.22e-008    185
6.24e-008    196
6.26e-008    188
6.28e-008    177
6.3e-008    182
6.32e-008    199
6.34e-008    167
6.36e-008    165
6.38e-008    156
6.4e-008    129
6.42e-008    155
6.44e-008    164
6.46e-008    138
6.48e-008    164
6.5e-008    129
6.52e-008    130
6.54e-008    139
6.56e-008    132
6.58e-008    128
6.6e-008    138
6.62e-008    98
6.64e-008    118
6.66e-008    118
6.68e-008    96
6.7e-008    92
6.72e-008    92
6.74e-008    78
6.76e-008    82
6.78e-008    110
6.8e-008    104
6.82e-008    102
6.84e-008    87
6.86e-008    84
6.88e-008    88
6.9e-008    73
6.92e-008    65
6.94e-008    71
6.96e-008    58
6.98e-008    87
7e-008    66
7.02e-008    60
7.04e-008    49
7.06e-008    64
7.08e-008    51
7.1e-008    53
7.12e-008    66
7.14e-008    40
7.16e-008    42
7.18e-008    49
7.2e-008    40
7.22e-008    29
7.24e-008    37
7.26e-008    46
7.28e-008    33
7.3e-008    41
7.32e-008    27
7.34e-008    44
7.36e-008    32
7.38e-008    31
7.4e-008    30
7.42e-008    27
7.44e-008    43
7.46e-008    29
7.48e-008    20
7.5e-008    16
7.52e-008    27
7.54e-008    19
7.56e-008    24
7.58e-008    17
7.6e-008    19
7.62e-008    22
7.64e-008    21
7.66e-008    15
7.68e-008    15
7.7e-008    30
7.72e-008    16
7.74e-008    15
7.76e-008    9
7.78e-008    14
7.8e-008    13
7.82e-008    18
7.84e-008    12
7.86e-008    13
7.88e-008    11
7.9e-008    7
7.92e-008    11
7.94e-008    14
7.96e-008    7
7.98e-008    8
8e-008    10
8.02e-008    10
8.04e-008    9
8.06e-008    7
8.08e-008    3
8.1e-008    9
8.12e-008    3
8.14e-008    5
8.16e-008    2
8.18e-008    10
8.2e-008    11
8.22e-008    7
8.24e-008    5
8.26e-008    4
8.28e-008    6
8.3e-008    6
8.32e-008    3
8.34e-008    1
8.36e-008    2
8.38e-008    3
8.4e-008    5
8.42e-008    3
8.44e-008    4
8.46e-008    2
8.48e-008    2
8.5e-008    5
8.52e-008    2
8.54e-008    0
8.56e-008    3
8.58e-008    1
8.6e-008    0
8.62e-008    3
8.64e-008    1
8.66e-008    1
8.68e-008    2
8.7e-008    0
8.72e-008    1
8.74e-008    1
8.76e-008    1
8.78e-008    1
8.8e-008    1
8.82e-008    1
8.84e-008    1
8.86e-008    0
8.88e-008    0
8.9e-008    2
8.92e-008    2
8.94e-008    1
8.96e-008    2
8.98e-008    1
9e-008    1
9.02e-008    1
9.04e-008    0
9.06e-008    2
9.08e-008    0
9.1e-008    2
9.12e-008    0
9.14e-008    0
9.16e-008    0
9.18e-008    1
9.2e-008    0
9.22e-008    1
9.24e-008    1
9.26e-008    1
9.28e-008    0
9.3e-008    1
9.32e-008    0
9.34e-008    0
9.36e-008    0
9.38e-008    0
9.4e-008    0
9.42e-008    1
9.44e-008    0
9.46e-008    0
9.48e-008    0
9.5e-008    0
9.52e-008    0
9.54e-008    0
9.56e-008    0
9.58e-008    1
9.6e-008    0
9.62e-008    0
9.64e-008    0
9.66e-008    0
9.68e-008    0
9.7e-008    0
9.72e-008    0
9.74e-008    0
9.76e-008    0
9.78e-008    0
9.8e-008    0
9.82e-008    0
9.84e-008    0
9.86e-008    0
9.88e-008    0
9.9e-008    0
9.92e-008    0
9.94e-008    0
9.96e-008    0
9.98e-008    0
