LECROYWR620Zi,62897,Histogram
Segments,1,SegmentSize,613
Segment,TrigTime,TimeSinceSegment1
#1,12-Feb-2018 12:50:13,0                 
Time,Ampl
-6.65e-008,91
-6.6e-008,98
-6.55e-008,104
-6.5e-008,112
-6.45e-008,106
-6.4e-008,96
-6.35e-008,102
-6.3e-008,103
-6.25e-008,77
-6.2e-008,104
-6.15e-008,103
-6.1e-008,120
-6.05e-008,100
-6e-008,117
-5.95e-008,115
-5.9e-008,113
-5.85e-008,97
-5.8e-008,114
-5.75e-008,107
-5.7e-008,110
-5.65e-008,106
-5.6e-008,95
-5.55e-008,115
-5.5e-008,109
-5.45e-008,98
-5.4e-008,102
-5.35e-008,95
-5.3e-008,108
-5.25e-008,106
-5.2e-008,98
-5.15e-008,99
-5.1e-008,107
-5.05e-008,108
-5e-008,110
-4.95e-008,109
-4.9e-008,109
-4.85e-008,105
-4.8e-008,112
-4.75e-008,104
-4.7e-008,108
-4.65e-008,112
-4.6e-008,127
-4.55e-008,113
-4.5e-008,107
-4.45e-008,118
-4.4e-008,125
-4.35e-008,116
-4.3e-008,112
-4.25e-008,106
-4.2e-008,109
-4.15e-008,111
-4.1e-008,116
-4.05e-008,121
-4e-008,123
-3.95e-008,128
-3.9e-008,113
-3.85e-008,114
-3.8e-008,114
-3.75e-008,112
-3.7e-008,118
-3.65e-008,97
-3.6e-008,131
-3.55e-008,125
-3.5e-008,129
-3.45e-008,130
-3.4e-008,99
-3.35e-008,132
-3.3e-008,141
-3.25e-008,111
-3.2e-008,133
-3.15e-008,123
-3.1e-008,99
-3.05e-008,128
-3e-008,92
-2.95e-008,124
-2.9e-008,124
-2.85e-008,122
-2.8e-008,117
-2.75e-008,119
-2.7e-008,119
-2.65e-008,144
-2.6e-008,137
-2.55e-008,136
-2.5e-008,147
-2.45e-008,133
-2.4e-008,130
-2.35e-008,137
-2.3e-008,134
-2.25e-008,141
-2.2e-008,110
-2.15e-008,155
-2.1e-008,122
-2.05e-008,150
-2e-008,149
-1.95e-008,148
-1.9e-008,151
-1.85e-008,141
-1.8e-008,130
-1.75e-008,149
-1.7e-008,152
-1.65e-008,159
-1.6e-008,143
-1.55e-008,132
-1.5e-008,149
-1.45e-008,141
-1.4e-008,161
-1.35e-008,161
-1.3e-008,136
-1.25e-008,165
-1.2e-008,154
-1.15e-008,182
-1.1e-008,187
-1.05e-008,174
-1e-008,174
-9.5e-009,189
-9e-009,179
-8.5e-009,205
-8e-009,163
-7.5e-009,187
-7e-009,180
-6.5e-009,180
-6e-009,197
-5.5e-009,199
-5e-009,178
-4.5e-009,193
-4e-009,217
-3.5e-009,221
-3e-009,199
-2.5e-009,227
-2e-009,200
-1.5e-009,240
-1e-009,266
-5e-010,245
-1.175e-022,235
5e-010,242
1e-009,263
1.5e-009,260
2e-009,271
2.5e-009,262
3e-009,280
3.5e-009,286
4e-009,288
4.5e-009,312
5e-009,305
5.5e-009,288
6e-009,334
6.5e-009,377
7e-009,381
7.5e-009,404
8e-009,444
8.5e-009,444
9e-009,570
9.5e-009,610
1e-008,650
1.05e-008,670
1.1e-008,726
1.15e-008,812
1.2e-008,955
1.25e-008,1020
1.3e-008,1044
1.35e-008,1245
1.4e-008,1270
1.45e-008,1380
1.5e-008,1576
1.55e-008,1626
1.6e-008,1761
1.65e-008,1864
1.7e-008,1983
1.75e-008,2117
1.8e-008,2245
1.85e-008,2209
1.9e-008,2371
1.95e-008,2499
2e-008,2479
2.05e-008,2659
2.1e-008,2748
2.15e-008,2603
2.2e-008,2679
2.25e-008,2792
2.3e-008,2743
2.35e-008,2813
2.4e-008,2674
2.45e-008,2615
2.5e-008,2634
2.55e-008,2608
2.6e-008,2659
2.65e-008,2606
2.7e-008,2509
2.75e-008,2411
2.8e-008,2265
2.85e-008,2207
2.9e-008,2066
2.95e-008,2074
3e-008,1953
3.05e-008,1813
3.1e-008,1792
3.15e-008,1597
3.2e-008,1583
3.25e-008,1430
3.3e-008,1389
3.35e-008,1312
3.4e-008,1197
3.45e-008,1203
3.5e-008,1080
3.55e-008,1058
3.6e-008,882
3.65e-008,792
3.7e-008,826
3.75e-008,699
3.8e-008,636
3.85e-008,593
3.9e-008,529
3.95e-008,511
4e-008,465
4.05e-008,409
4.1e-008,394
4.15e-008,345
4.2e-008,315
4.25e-008,247
4.3e-008,236
4.35e-008,233
4.4e-008,208
4.45e-008,196
4.5e-008,172
4.55e-008,162
4.6e-008,131
4.65e-008,113
4.7e-008,111
4.75e-008,83
4.8e-008,99
4.85e-008,79
4.9e-008,58
4.95e-008,67
5e-008,52
5.05e-008,50
5.1e-008,52
5.15e-008,46
5.2e-008,33
5.25e-008,27
5.3e-008,23
5.35e-008,22
5.4e-008,24
5.45e-008,13
5.5e-008,20
5.55e-008,14
5.6e-008,14
5.65e-008,10
5.7e-008,6
5.75e-008,3
5.8e-008,7
5.85e-008,9
5.9e-008,3
5.95e-008,4
6e-008,5
6.05e-008,3
6.1e-008,2
6.15e-008,1
6.2e-008,3
6.25e-008,4
6.3e-008,0
6.35e-008,1
6.4e-008,0
6.45e-008,0
6.5e-008,1
6.55e-008,0
6.6e-008,0
6.65e-008,0
6.7e-008,0
6.75e-008,1
6.8e-008,0
6.85e-008,0
6.9e-008,0
6.95e-008,0
7e-008,1
7.05e-008,0
7.1e-008,0
7.15e-008,0
7.2e-008,0
7.25e-008,0
7.3e-008,0
7.35e-008,0
7.4e-008,0
7.45e-008,1
7.5e-008,0
7.55e-008,1
7.6e-008,1
7.65e-008,0
7.7e-008,0
7.75e-008,0
7.8e-008,0
7.85e-008,1
7.9e-008,0
7.95e-008,0
8e-008,0
8.05e-008,0
8.1e-008,0
8.15e-008,0
8.2e-008,0
8.25e-008,0
8.3e-008,0
8.35e-008,0
8.4e-008,0
8.45e-008,0
8.5e-008,0
8.55e-008,0
8.6e-008,0
8.65e-008,0
8.7e-008,0
8.75e-008,0
8.8e-008,0
8.85e-008,0
8.9e-008,0
8.95e-008,0
9e-008,0
9.05e-008,0
9.1e-008,0
9.15e-008,0
9.2e-008,0
9.25e-008,0
9.3e-008,0
9.35e-008,0
9.4e-008,0
9.45e-008,0
9.5e-008,0
9.55e-008,0
9.6e-008,0
9.65e-008,0
9.7e-008,0
9.75e-008,0
9.8e-008,0
9.85e-008,0
9.9e-008,0
9.95e-008,0
1e-007,0
1.005e-007,0
1.01e-007,0
1.015e-007,0
1.02e-007,0
1.025e-007,0
1.03e-007,0
1.035e-007,0
1.04e-007,0
1.045e-007,0
1.05e-007,0
1.055e-007,0
1.06e-007,0
1.065e-007,0
1.07e-007,0
1.075e-007,0
1.08e-007,0
1.085e-007,0
1.09e-007,0
1.095e-007,0
1.1e-007,0
1.105e-007,0
1.11e-007,0
1.115e-007,0
1.12e-007,0
1.125e-007,0
1.13e-007,0
1.135e-007,0
1.14e-007,0
1.145e-007,0
1.15e-007,0
1.155e-007,0
1.16e-007,0
1.165e-007,0
1.17e-007,0
1.175e-007,0
1.18e-007,0
1.185e-007,0
1.19e-007,0
1.195e-007,0
1.2e-007,0
1.205e-007,0
1.21e-007,0
1.215e-007,0
1.22e-007,0
1.225e-007,0
1.23e-007,0
1.235e-007,0
1.24e-007,0
1.245e-007,0
1.25e-007,0
1.255e-007,0
1.26e-007,0
1.265e-007,0
1.27e-007,0
1.275e-007,0
1.28e-007,0
1.285e-007,0
1.29e-007,0
1.295e-007,0
1.3e-007,0
1.305e-007,0
1.31e-007,0
1.315e-007,0
1.32e-007,0
1.325e-007,0
1.33e-007,0
1.335e-007,0
1.34e-007,0
1.345e-007,0
1.35e-007,0
1.355e-007,0
1.36e-007,0
1.365e-007,0
1.37e-007,0
1.375e-007,0
1.38e-007,0
1.385e-007,0
1.39e-007,0
1.395e-007,0
1.4e-007,0
1.405e-007,0
1.41e-007,0
1.415e-007,0
1.42e-007,0
1.425e-007,0
1.43e-007,0
1.435e-007,0
1.44e-007,0
1.445e-007,0
1.45e-007,0
1.455e-007,0
1.46e-007,0
1.465e-007,0
1.47e-007,0
1.475e-007,0
1.48e-007,0
1.485e-007,0
1.49e-007,0
1.495e-007,0
1.5e-007,0
1.505e-007,0
1.51e-007,0
1.515e-007,0
1.52e-007,0
1.525e-007,0
1.53e-007,0
1.535e-007,0
1.54e-007,0
1.545e-007,0
1.55e-007,0
1.555e-007,0
1.56e-007,0
1.565e-007,0
1.57e-007,0
1.575e-007,0
1.58e-007,0
1.585e-007,0
1.59e-007,0
1.595e-007,0
1.6e-007,0
1.605e-007,0
1.61e-007,0
1.615e-007,0
1.62e-007,0
1.625e-007,0
1.63e-007,0
1.635e-007,0
1.64e-007,0
1.645e-007,0
1.65e-007,0
1.655e-007,0
1.66e-007,0
1.665e-007,0
1.67e-007,0
1.675e-007,0
1.68e-007,0
1.685e-007,0
1.69e-007,0
1.695e-007,0
1.7e-007,0
1.705e-007,0
1.71e-007,0
1.715e-007,0
1.72e-007,0
1.725e-007,0
1.73e-007,0
1.735e-007,0
1.74e-007,0
1.745e-007,0
1.75e-007,0
1.755e-007,0
1.76e-007,0
1.765e-007,0
1.77e-007,0
1.775e-007,0
1.78e-007,0
1.785e-007,0
1.79e-007,0
1.795e-007,0
1.8e-007,0
1.805e-007,0
1.81e-007,0
1.815e-007,0
1.82e-007,0
1.825e-007,0
1.83e-007,0
1.835e-007,0
1.84e-007,0
1.845e-007,0
1.85e-007,0
1.855e-007,0
1.86e-007,0
1.865e-007,0
1.87e-007,0
1.875e-007,0
1.88e-007,0
1.885e-007,0
1.89e-007,0
1.895e-007,0
1.9e-007,0
1.905e-007,0
1.91e-007,0
1.915e-007,0
1.92e-007,0
1.925e-007,0
1.93e-007,0
1.935e-007,0
1.94e-007,0
1.945e-007,0
1.95e-007,0
1.955e-007,0
1.96e-007,0
1.965e-007,0
1.97e-007,0
1.975e-007,0
1.98e-007,0
1.985e-007,0
1.99e-007,0
1.995e-007,0
2e-007,0
2.005e-007,0
2.01e-007,0
2.015e-007,0
2.02e-007,0
2.025e-007,0
2.03e-007,0
2.035e-007,0
2.04e-007,0
2.045e-007,0
2.05e-007,0
2.055e-007,0
2.06e-007,0
2.065e-007,0
2.07e-007,0
2.075e-007,0
2.08e-007,0
2.085e-007,0
2.09e-007,0
2.095e-007,0
2.1e-007,0
2.105e-007,0
2.11e-007,0
2.115e-007,0
2.12e-007,0
2.125e-007,0
2.13e-007,0
2.135e-007,0
2.14e-007,0
2.145e-007,0
2.15e-007,0
2.155e-007,0
2.16e-007,0
2.165e-007,0
2.17e-007,0
2.175e-007,0
2.18e-007,0
2.185e-007,0
2.19e-007,0
2.195e-007,0
2.2e-007,0
2.205e-007,0
2.21e-007,0
2.215e-007,0
2.22e-007,0
2.225e-007,0
2.23e-007,0
2.235e-007,0
2.24e-007,0
2.245e-007,0
2.25e-007,0
2.255e-007,0
2.26e-007,0
2.265e-007,0
2.27e-007,0
2.275e-007,0
2.28e-007,0
2.285e-007,0
2.29e-007,0
2.295e-007,0
2.3e-007,0
2.305e-007,0
2.31e-007,0
2.315e-007,0
2.32e-007,0
2.325e-007,0
2.33e-007,0
2.335e-007,0
2.34e-007,0
2.345e-007,0
2.35e-007,0
2.355e-007,0
2.36e-007,0
2.365e-007,0
2.37e-007,0
2.375e-007,0
2.38e-007,0
2.385e-007,0
2.39e-007,0
2.395e-007,0
