#LECROYWR620Zi   62897,Histogram
#Segments   1,SegmentSize,840
#Segment   TrigTime,TimeSinceSegment1
##1   12-Feb-2018 12:09:54,0                 
#time 1504 s
#Time   Ampl
-1.8e-007   0
-1.795e-007   0
-1.79e-007   0
-1.785e-007   0
-1.78e-007   0
-1.775e-007   0
-1.77e-007   0
-1.765e-007   0
-1.76e-007   0
-1.755e-007   0
-1.75e-007   0
-1.745e-007   0
-1.74e-007   0
-1.735e-007   0
-1.73e-007   0
-1.725e-007   0
-1.72e-007   0
-1.715e-007   0
-1.71e-007   0
-1.705e-007   0
-1.7e-007   0
-1.695e-007   0
-1.69e-007   0
-1.685e-007   0
-1.68e-007   0
-1.675e-007   0
-1.67e-007   0
-1.665e-007   0
-1.66e-007   0
-1.655e-007   0
-1.65e-007   0
-1.645e-007   0
-1.64e-007   2
-1.635e-007   0
-1.63e-007   0
-1.625e-007   0
-1.62e-007   0
-1.615e-007   0
-1.61e-007   0
-1.605e-007   0
-1.6e-007   0
-1.595e-007   0
-1.59e-007   0
-1.585e-007   0
-1.58e-007   0
-1.575e-007   0
-1.57e-007   0
-1.565e-007   0
-1.56e-007   0
-1.555e-007   0
-1.55e-007   0
-1.545e-007   0
-1.54e-007   0
-1.535e-007   0
-1.53e-007   0
-1.525e-007   0
-1.52e-007   0
-1.515e-007   1
-1.51e-007   0
-1.505e-007   0
-1.5e-007   0
-1.495e-007   0
-1.49e-007   0
-1.485e-007   0
-1.48e-007   0
-1.475e-007   0
-1.47e-007   0
-1.465e-007   0
-1.46e-007   0
-1.455e-007   0
-1.45e-007   0
-1.445e-007   0
-1.44e-007   0
-1.435e-007   0
-1.43e-007   0
-1.425e-007   0
-1.42e-007   0
-1.415e-007   0
-1.41e-007   0
-1.405e-007   0
-1.4e-007   0
-1.395e-007   0
-1.39e-007   0
-1.385e-007   0
-1.38e-007   0
-1.375e-007   0
-1.37e-007   0
-1.365e-007   0
-1.36e-007   0
-1.355e-007   0
-1.35e-007   0
-1.345e-007   0
-1.34e-007   0
-1.335e-007   0
-1.33e-007   0
-1.325e-007   1
-1.32e-007   0
-1.315e-007   0
-1.31e-007   0
-1.305e-007   0
-1.3e-007   0
-1.295e-007   0
-1.29e-007   0
-1.285e-007   0
-1.28e-007   0
-1.275e-007   0
-1.27e-007   1
-1.265e-007   0
-1.26e-007   0
-1.255e-007   0
-1.25e-007   0
-1.245e-007   0
-1.24e-007   0
-1.235e-007   0
-1.23e-007   0
-1.225e-007   0
-1.22e-007   0
-1.215e-007   0
-1.21e-007   1
-1.205e-007   0
-1.2e-007   0
-1.195e-007   0
-1.19e-007   0
-1.185e-007   0
-1.18e-007   0
-1.175e-007   0
-1.17e-007   0
-1.165e-007   0
-1.16e-007   0
-1.155e-007   0
-1.15e-007   0
-1.145e-007   1
-1.14e-007   0
-1.135e-007   0
-1.13e-007   0
-1.125e-007   0
-1.12e-007   1
-1.115e-007   0
-1.11e-007   0
-1.105e-007   0
-1.1e-007   0
-1.095e-007   0
-1.09e-007   0
-1.085e-007   0
-1.08e-007   0
-1.075e-007   0
-1.07e-007   0
-1.065e-007   0
-1.06e-007   0
-1.055e-007   0
-1.05e-007   0
-1.045e-007   0
-1.04e-007   0
-1.035e-007   0
-1.03e-007   0
-1.025e-007   0
-1.02e-007   1
-1.015e-007   0
-1.01e-007   0
-1.005e-007   0
-1e-007   0
-9.95e-008   0
-9.9e-008   0
-9.85e-008   0
-9.8e-008   0
-9.75e-008   0
-9.7e-008   0
-9.65e-008   0
-9.6e-008   0
-9.55e-008   0
-9.5e-008   1
-9.45e-008   0
-9.4e-008   0
-9.35e-008   0
-9.3e-008   0
-9.25e-008   0
-9.2e-008   0
-9.15e-008   0
-9.1e-008   0
-9.05e-008   0
-9e-008   0
-8.95e-008   2
-8.9e-008   0
-8.85e-008   0
-8.8e-008   0
-8.75e-008   0
-8.7e-008   0
-8.65e-008   0
-8.6e-008   0
-8.55e-008   0
-8.5e-008   0
-8.45e-008   1
-8.4e-008   0
-8.35e-008   0
-8.3e-008   0
-8.25e-008   0
-8.2e-008   0
-8.15e-008   0
-8.1e-008   0
-8.05e-008   1
-8e-008   0
-7.95e-008   0
-7.9e-008   0
-7.85e-008   0
-7.8e-008   0
-7.75e-008   0
-7.7e-008   0
-7.65e-008   0
-7.6e-008   2
-7.55e-008   0
-7.5e-008   1
-7.45e-008   0
-7.4e-008   0
-7.35e-008   0
-7.3e-008   0
-7.25e-008   0
-7.2e-008   0
-7.15e-008   0
-7.1e-008   0
-7.05e-008   0
-7e-008   0
-6.95e-008   0
-6.9e-008   0
-6.85e-008   0
-6.8e-008   0
-6.75e-008   0
-6.7e-008   1
-6.65e-008   0
-6.6e-008   0
-6.55e-008   0
-6.5e-008   0
-6.45e-008   0
-6.4e-008   0
-6.35e-008   0
-6.3e-008   0
-6.25e-008   0
-6.2e-008   0
-6.15e-008   0
-6.1e-008   0
-6.05e-008   0
-6e-008   0
-5.95e-008   0
-5.9e-008   1
-5.85e-008   0
-5.8e-008   0
-5.75e-008   0
-5.7e-008   0
-5.65e-008   0
-5.6e-008   0
-5.55e-008   1
-5.5e-008   0
-5.45e-008   0
-5.4e-008   1
-5.35e-008   0
-5.3e-008   1
-5.25e-008   1
-5.2e-008   1
-5.15e-008   0
-5.1e-008   0
-5.05e-008   0
-5e-008   0
-4.95e-008   0
-4.9e-008   3
-4.85e-008   1
-4.8e-008   1
-4.75e-008   0
-4.7e-008   0
-4.65e-008   1
-4.6e-008   2
-4.55e-008   1
-4.5e-008   5
-4.45e-008   3
-4.4e-008   1
-4.35e-008   4
-4.3e-008   2
-4.25e-008   3
-4.2e-008   4
-4.15e-008   0
-4.1e-008   1
-4.05e-008   5
-4e-008   2
-3.95e-008   6
-3.9e-008   4
-3.85e-008   4
-3.8e-008   6
-3.75e-008   5
-3.7e-008   9
-3.65e-008   4
-3.6e-008   7
-3.55e-008   10
-3.5e-008   7
-3.45e-008   7
-3.4e-008   14
-3.35e-008   11
-3.3e-008   12
-3.25e-008   16
-3.2e-008   17
-3.15e-008   17
-3.1e-008   16
-3.05e-008   18
-3e-008   22
-2.95e-008   24
-2.9e-008   26
-2.85e-008   16
-2.8e-008   17
-2.75e-008   26
-2.7e-008   27
-2.65e-008   27
-2.6e-008   40
-2.55e-008   43
-2.5e-008   21
-2.45e-008   28
-2.4e-008   45
-2.35e-008   46
-2.3e-008   46
-2.25e-008   48
-2.2e-008   55
-2.15e-008   58
-2.1e-008   54
-2.05e-008   64
-2e-008   69
-1.95e-008   66
-1.9e-008   71
-1.85e-008   77
-1.8e-008   78
-1.75e-008   76
-1.7e-008   77
-1.65e-008   94
-1.6e-008   89
-1.55e-008   78
-1.5e-008   89
-1.45e-008   98
-1.4e-008   92
-1.35e-008   111
-1.3e-008   113
-1.25e-008   128
-1.2e-008   135
-1.15e-008   138
-1.1e-008   146
-1.05e-008   135
-1e-008   115
-9.5e-009   151
-9e-009   150
-8.5e-009   122
-8e-009   166
-7.5e-009   152
-7e-009   186
-6.5e-009   231
-6e-009   243
-5.5e-009   290
-5e-009   326
-4.5e-009   409
-4e-009   562
-3.5e-009   757
-3e-009   1377
-2.5e-009   2223
-2e-009   3780
-1.5e-009   5278
-1e-009   6623
-5e-010   7074
9.678e-022   6724
5e-010   5524
1e-009   3868
1.5e-009   2304
2e-009   1171
2.5e-009   493
3e-009   134
3.5e-009   41
4e-009   16
4.5e-009   4
5e-009   1
5.5e-009   0
6e-009   1
6.5e-009   0
7e-009   0
7.5e-009   0
8e-009   0
8.5e-009   0
9e-009   0
9.5e-009   1
1e-008   0
1.05e-008   0
1.1e-008   0
1.15e-008   0
1.2e-008   0
1.25e-008   0
1.3e-008   0
1.35e-008   0
1.4e-008   0
1.45e-008   0
1.5e-008   0
1.55e-008   0
1.6e-008   0
1.65e-008   0
1.7e-008   0
1.75e-008   0
1.8e-008   0
1.85e-008   0
1.9e-008   0
1.95e-008   0
2e-008   0
2.05e-008   0
2.1e-008   0
2.15e-008   0
2.2e-008   0
2.25e-008   0
2.3e-008   0
2.35e-008   0
2.4e-008   0
2.45e-008   0
2.5e-008   0
2.55e-008   0
2.6e-008   0
2.65e-008   0
2.7e-008   0
2.75e-008   0
2.8e-008   0
2.85e-008   0
2.9e-008   0
2.95e-008   0
3e-008   0
3.05e-008   0
3.1e-008   0
3.15e-008   0
3.2e-008   0
3.25e-008   0
3.3e-008   0
3.35e-008   0
3.4e-008   0
3.45e-008   0
3.5e-008   0
3.55e-008   0
3.6e-008   0
3.65e-008   0
3.7e-008   1
3.75e-008   0
3.8e-008   0
3.85e-008   0
3.9e-008   0
3.95e-008   0
4e-008   0
4.05e-008   0
4.1e-008   0
4.15e-008   0
4.2e-008   0
4.25e-008   0
4.3e-008   0
4.35e-008   0
4.4e-008   0
4.45e-008   0
4.5e-008   0
4.55e-008   0
4.6e-008   0
4.65e-008   0
4.7e-008   0
4.75e-008   0
4.8e-008   0
4.85e-008   0
4.9e-008   0
4.95e-008   0
5e-008   0
5.05e-008   0
5.1e-008   0
5.15e-008   0
5.2e-008   0
5.25e-008   0
5.3e-008   0
5.35e-008   0
5.4e-008   0
5.45e-008   0
5.5e-008   0
5.55e-008   0
5.6e-008   0
5.65e-008   0
5.7e-008   0
5.75e-008   0
5.8e-008   0
5.85e-008   0
5.9e-008   0
5.95e-008   0
6e-008   0
6.05e-008   0
6.1e-008   0
6.15e-008   0
6.2e-008   0
6.25e-008   0
6.3e-008   0
6.35e-008   0
6.4e-008   0
6.45e-008   0
6.5e-008   0
6.55e-008   0
6.6e-008   0
6.65e-008   0
6.7e-008   0
6.75e-008   0
6.8e-008   0
6.85e-008   0
6.9e-008   0
6.95e-008   0
7e-008   0
7.05e-008   0
7.1e-008   0
7.15e-008   0
7.2e-008   0
7.25e-008   0
7.3e-008   0
7.35e-008   0
7.4e-008   0
7.45e-008   0
7.5e-008   0
7.55e-008   0
7.6e-008   0
7.65e-008   0
7.7e-008   0
7.75e-008   0
7.8e-008   0
7.85e-008   0
7.9e-008   0
7.95e-008   0
8e-008   0
8.05e-008   0
8.1e-008   0
8.15e-008   0
8.2e-008   0
8.25e-008   0
8.3e-008   0
8.35e-008   0
8.4e-008   0
8.45e-008   0
8.5e-008   0
8.55e-008   0
8.6e-008   0
8.65e-008   0
8.7e-008   0
8.75e-008   0
8.8e-008   0
8.85e-008   0
8.9e-008   0
8.95e-008   0
9e-008   0
9.05e-008   0
9.1e-008   0
9.15e-008   0
9.2e-008   0
9.25e-008   0
9.3e-008   0
9.35e-008   0
9.4e-008   0
9.45e-008   0
9.5e-008   0
9.55e-008   0
9.6e-008   0
9.65e-008   0
9.7e-008   0
9.75e-008   0
9.8e-008   0
9.85e-008   0
9.9e-008   0
9.95e-008   0
1e-007   0
1.005e-007   0
1.01e-007   0
1.015e-007   0
1.02e-007   0
1.025e-007   0
1.03e-007   0
1.035e-007   0
1.04e-007   0
1.045e-007   0
1.05e-007   0
1.055e-007   0
1.06e-007   0
1.065e-007   0
1.07e-007   0
1.075e-007   0
1.08e-007   0
1.085e-007   0
1.09e-007   0
1.095e-007   0
1.1e-007   0
1.105e-007   0
1.11e-007   0
1.115e-007   0
1.12e-007   0
1.125e-007   0
1.13e-007   0
1.135e-007   0
1.14e-007   0
1.145e-007   0
1.15e-007   0
1.155e-007   0
1.16e-007   0
1.165e-007   0
1.17e-007   0
1.175e-007   0
1.18e-007   0
1.185e-007   0
1.19e-007   0
1.195e-007   0
1.2e-007   0
1.205e-007   0
1.21e-007   0
1.215e-007   0
1.22e-007   0
1.225e-007   0
1.23e-007   0
1.235e-007   0
1.24e-007   0
1.245e-007   0
1.25e-007   0
1.255e-007   0
1.26e-007   0
1.265e-007   0
1.27e-007   0
1.275e-007   0
1.28e-007   0
1.285e-007   0
1.29e-007   0
1.295e-007   0
1.3e-007   0
1.305e-007   0
1.31e-007   0
1.315e-007   0
1.32e-007   0
1.325e-007   0
1.33e-007   0
1.335e-007   0
1.34e-007   0
1.345e-007   0
1.35e-007   0
1.355e-007   0
1.36e-007   0
1.365e-007   0
1.37e-007   0
1.375e-007   0
1.38e-007   0
1.385e-007   0
1.39e-007   0
1.395e-007   0
1.4e-007   0
1.405e-007   0
1.41e-007   0
1.415e-007   0
1.42e-007   0
1.425e-007   0
1.43e-007   0
1.435e-007   0
1.44e-007   0
1.445e-007   0
1.45e-007   0
1.455e-007   0
1.46e-007   0
1.465e-007   0
1.47e-007   0
1.475e-007   0
1.48e-007   0
1.485e-007   0
1.49e-007   0
1.495e-007   0
1.5e-007   0
1.505e-007   0
1.51e-007   0
1.515e-007   0
1.52e-007   0
1.525e-007   0
1.53e-007   0
1.535e-007   0
1.54e-007   0
1.545e-007   0
1.55e-007   0
1.555e-007   0
1.56e-007   0
1.565e-007   0
1.57e-007   0
1.575e-007   0
1.58e-007   0
1.585e-007   0
1.59e-007   0
1.595e-007   0
1.6e-007   0
1.605e-007   0
1.61e-007   0
1.615e-007   0
1.62e-007   0
1.625e-007   0
1.63e-007   0
1.635e-007   0
1.64e-007   0
1.645e-007   0
1.65e-007   0
1.655e-007   0
1.66e-007   0
1.665e-007   0
1.67e-007   0
1.675e-007   0
1.68e-007   0
1.685e-007   0
1.69e-007   0
1.695e-007   0
1.7e-007   0
1.705e-007   0
1.71e-007   0
1.715e-007   0
1.72e-007   0
1.725e-007   0
1.73e-007   0
1.735e-007   0
1.74e-007   0
1.745e-007   0
1.75e-007   0
1.755e-007   0
1.76e-007   0
1.765e-007   0
1.77e-007   0
1.775e-007   0
1.78e-007   0
1.785e-007   0
1.79e-007   0
1.795e-007   0
1.8e-007   0
1.805e-007   0
1.81e-007   0
1.815e-007   0
1.82e-007   0
1.825e-007   0
1.83e-007   0
1.835e-007   0
1.84e-007   0
1.845e-007   0
1.85e-007   0
1.855e-007   0
1.86e-007   0
1.865e-007   0
1.87e-007   0
1.875e-007   0
1.88e-007   0
1.885e-007   0
1.89e-007   0
1.895e-007   0
1.9e-007   0
1.905e-007   0
1.91e-007   0
1.915e-007   0
1.92e-007   0
1.925e-007   0
1.93e-007   0
1.935e-007   0
1.94e-007   0
1.945e-007   0
1.95e-007   0
1.955e-007   0
1.96e-007   0
1.965e-007   0
1.97e-007   0
1.975e-007   0
1.98e-007   0
1.985e-007   0
1.99e-007   0
1.995e-007   0
2e-007   0
2.005e-007   0
2.01e-007   0
2.015e-007   0
2.02e-007   0
2.025e-007   0
2.03e-007   0
2.035e-007   0
2.04e-007   0
2.045e-007   0
2.05e-007   0
2.055e-007   0
2.06e-007   0
2.065e-007   0
2.07e-007   0
2.075e-007   0
2.08e-007   0
2.085e-007   0
2.09e-007   0
2.095e-007   0
2.1e-007   0
2.105e-007   0
2.11e-007   0
2.115e-007   0
2.12e-007   0
2.125e-007   0
2.13e-007   0
2.135e-007   0
2.14e-007   0
2.145e-007   0
2.15e-007   0
2.155e-007   0
2.16e-007   0
2.165e-007   0
2.17e-007   0
2.175e-007   0
2.18e-007   0
2.185e-007   0
2.19e-007   0
2.195e-007   0
2.2e-007   0
2.205e-007   0
2.21e-007   0
2.215e-007   0
2.22e-007   0
2.225e-007   0
2.23e-007   0
2.235e-007   0
2.24e-007   0
2.245e-007   0
2.25e-007   0
2.255e-007   0
2.26e-007   0
2.265e-007   0
2.27e-007   0
2.275e-007   0
2.28e-007   0
2.285e-007   0
2.29e-007   0
2.295e-007   0
2.3e-007   0
2.305e-007   0
2.31e-007   0
2.315e-007   0
2.32e-007   0
2.325e-007   0
2.33e-007   0
2.335e-007   0
2.34e-007   0
2.345e-007   0
2.35e-007   0
2.355e-007   0
2.36e-007   0
2.365e-007   0
2.37e-007   0
2.375e-007   0
2.38e-007   0
2.385e-007   0
2.39e-007   0
2.395e-007   0
