LECROYWR620Zi,62897,Histogram
Segments,1,SegmentSize,775
Segment,TrigTime,TimeSinceSegment1
#1,23-Feb-2018 16:34:56,0                 
Time,Ampl
-1e-008,0
-9.98e-009,0
-9.96e-009,0
-9.94e-009,0
-9.92e-009,0
-9.9e-009,0
-9.88e-009,0
-9.86e-009,0
-9.84e-009,0
-9.82e-009,0
-9.8e-009,0
-9.78e-009,0
-9.76e-009,0
-9.74e-009,0
-9.72e-009,0
-9.7e-009,0
-9.68e-009,0
-9.66e-009,0
-9.64e-009,0
-9.62e-009,0
-9.6e-009,0
-9.58e-009,0
-9.56e-009,0
-9.54e-009,0
-9.52e-009,0
-9.5e-009,0
-9.48e-009,0
-9.46e-009,0
-9.44e-009,0
-9.42e-009,0
-9.4e-009,0
-9.38e-009,0
-9.36e-009,0
-9.34e-009,0
-9.32e-009,0
-9.3e-009,0
-9.28e-009,0
-9.26e-009,0
-9.24e-009,0
-9.22e-009,0
-9.2e-009,0
-9.18e-009,0
-9.16e-009,0
-9.14e-009,0
-9.12e-009,0
-9.1e-009,0
-9.08e-009,0
-9.06e-009,0
-9.04e-009,0
-9.02e-009,0
-9e-009,0
-8.98e-009,0
-8.96e-009,0
-8.94e-009,0
-8.92e-009,0
-8.9e-009,0
-8.88e-009,0
-8.86e-009,0
-8.84e-009,0
-8.82e-009,0
-8.8e-009,0
-8.78e-009,0
-8.76e-009,0
-8.74e-009,0
-8.72e-009,0
-8.7e-009,0
-8.68e-009,0
-8.66e-009,0
-8.64e-009,0
-8.62e-009,0
-8.6e-009,0
-8.58e-009,0
-8.56e-009,0
-8.54e-009,0
-8.52e-009,0
-8.5e-009,0
-8.48e-009,0
-8.46e-009,0
-8.44e-009,0
-8.42e-009,0
-8.4e-009,0
-8.38e-009,0
-8.36e-009,0
-8.34e-009,0
-8.32e-009,0
-8.3e-009,0
-8.28e-009,0
-8.26e-009,0
-8.24e-009,0
-8.22e-009,0
-8.2e-009,0
-8.18e-009,0
-8.16e-009,0
-8.14e-009,0
-8.12e-009,0
-8.1e-009,0
-8.08e-009,0
-8.06e-009,0
-8.04e-009,0
-8.02e-009,0
-8e-009,0
-7.98e-009,0
-7.96e-009,0
-7.94e-009,0
-7.92e-009,0
-7.9e-009,0
-7.88e-009,0
-7.86e-009,0
-7.84e-009,0
-7.82e-009,0
-7.8e-009,0
-7.78e-009,0
-7.76e-009,0
-7.74e-009,0
-7.72e-009,0
-7.7e-009,0
-7.68e-009,0
-7.66e-009,0
-7.64e-009,0
-7.62e-009,0
-7.6e-009,0
-7.58e-009,0
-7.56e-009,0
-7.54e-009,0
-7.52e-009,0
-7.5e-009,0
-7.48e-009,0
-7.46e-009,0
-7.44e-009,0
-7.42e-009,0
-7.4e-009,0
-7.38e-009,0
-7.36e-009,0
-7.34e-009,0
-7.32e-009,0
-7.3e-009,0
-7.28e-009,0
-7.26e-009,0
-7.24e-009,0
-7.22e-009,0
-7.2e-009,0
-7.18e-009,0
-7.16e-009,0
-7.14e-009,0
-7.12e-009,0
-7.1e-009,0
-7.08e-009,0
-7.06e-009,0
-7.04e-009,0
-7.02e-009,0
-7e-009,0
-6.98e-009,0
-6.96e-009,0
-6.94e-009,0
-6.92e-009,0
-6.9e-009,0
-6.88e-009,0
-6.86e-009,0
-6.84e-009,0
-6.82e-009,0
-6.8e-009,0
-6.78e-009,0
-6.76e-009,0
-6.74e-009,0
-6.72e-009,0
-6.7e-009,0
-6.68e-009,0
-6.66e-009,0
-6.64e-009,0
-6.62e-009,0
-6.6e-009,0
-6.58e-009,0
-6.56e-009,0
-6.54e-009,0
-6.52e-009,0
-6.5e-009,0
-6.48e-009,0
-6.46e-009,0
-6.44e-009,0
-6.42e-009,0
-6.4e-009,0
-6.38e-009,0
-6.36e-009,0
-6.34e-009,0
-6.32e-009,0
-6.3e-009,0
-6.28e-009,0
-6.26e-009,0
-6.24e-009,0
-6.22e-009,0
-6.2e-009,0
-6.18e-009,0
-6.16e-009,0
-6.14e-009,0
-6.12e-009,0
-6.1e-009,0
-6.08e-009,0
-6.06e-009,0
-6.04e-009,0
-6.02e-009,0
-6e-009,0
-5.98e-009,0
-5.96e-009,0
-5.94e-009,0
-5.92e-009,0
-5.9e-009,0
-5.88e-009,0
-5.86e-009,0
-5.84e-009,0
-5.82e-009,0
-5.8e-009,0
-5.78e-009,0
-5.76e-009,0
-5.74e-009,0
-5.72e-009,0
-5.7e-009,0
-5.68e-009,0
-5.66e-009,0
-5.64e-009,0
-5.62e-009,0
-5.6e-009,0
-5.58e-009,0
-5.56e-009,0
-5.54e-009,0
-5.52e-009,0
-5.5e-009,0
-5.48e-009,0
-5.46e-009,0
-5.44e-009,0
-5.42e-009,0
-5.4e-009,0
-5.38e-009,0
-5.36e-009,0
-5.34e-009,0
-5.32e-009,0
-5.3e-009,0
-5.28e-009,0
-5.26e-009,0
-5.24e-009,0
-5.22e-009,0
-5.2e-009,0
-5.18e-009,0
-5.16e-009,0
-5.14e-009,0
-5.12e-009,0
-5.1e-009,0
-5.08e-009,0
-5.06e-009,0
-5.04e-009,0
-5.02e-009,0
-5e-009,0
-4.98e-009,0
-4.96e-009,0
-4.94e-009,0
-4.92e-009,0
-4.9e-009,0
-4.88e-009,0
-4.86e-009,0
-4.84e-009,0
-4.82e-009,0
-4.8e-009,0
-4.78e-009,0
-4.76e-009,0
-4.74e-009,0
-4.72e-009,0
-4.7e-009,0
-4.68e-009,0
-4.66e-009,0
-4.64e-009,0
-4.62e-009,0
-4.6e-009,0
-4.58e-009,0
-4.56e-009,0
-4.54e-009,0
-4.52e-009,0
-4.5e-009,0
-4.48e-009,0
-4.46e-009,0
-4.44e-009,0
-4.42e-009,0
-4.4e-009,0
-4.38e-009,0
-4.36e-009,0
-4.34e-009,0
-4.32e-009,0
-4.3e-009,0
-4.28e-009,0
-4.26e-009,0
-4.24e-009,0
-4.22e-009,0
-4.2e-009,0
-4.18e-009,0
-4.16e-009,0
-4.14e-009,0
-4.12e-009,0
-4.1e-009,0
-4.08e-009,0
-4.06e-009,0
-4.04e-009,0
-4.02e-009,0
-4e-009,0
-3.98e-009,0
-3.96e-009,0
-3.94e-009,0
-3.92e-009,0
-3.9e-009,0
-3.88e-009,0
-3.86e-009,0
-3.84e-009,0
-3.82e-009,0
-3.8e-009,0
-3.78e-009,0
-3.76e-009,0
-3.74e-009,0
-3.72e-009,0
-3.7e-009,0
-3.68e-009,0
-3.66e-009,0
-3.64e-009,0
-3.62e-009,0
-3.6e-009,0
-3.58e-009,0
-3.56e-009,0
-3.54e-009,0
-3.52e-009,0
-3.5e-009,0
-3.48e-009,0
-3.46e-009,0
-3.44e-009,0
-3.42e-009,0
-3.4e-009,0
-3.38e-009,0
-3.36e-009,0
-3.34e-009,0
-3.32e-009,0
-3.3e-009,0
-3.28e-009,0
-3.26e-009,0
-3.24e-009,0
-3.22e-009,0
-3.2e-009,0
-3.18e-009,0
-3.16e-009,0
-3.14e-009,0
-3.12e-009,0
-3.1e-009,0
-3.08e-009,0
-3.06e-009,0
-3.04e-009,0
-3.02e-009,0
-3e-009,0
-2.98e-009,0
-2.96e-009,0
-2.94e-009,0
-2.92e-009,0
-2.9e-009,0
-2.88e-009,0
-2.86e-009,0
-2.84e-009,0
-2.82e-009,0
-2.8e-009,0
-2.78e-009,0
-2.76e-009,0
-2.74e-009,0
-2.72e-009,0
-2.7e-009,0
-2.68e-009,0
-2.66e-009,0
-2.64e-009,0
-2.62e-009,0
-2.6e-009,0
-2.58e-009,0
-2.56e-009,0
-2.54e-009,0
-2.52e-009,0
-2.5e-009,0
-2.48e-009,0
-2.46e-009,0
-2.44e-009,0
-2.42e-009,0
-2.4e-009,0
-2.38e-009,0
-2.36e-009,0
-2.34e-009,0
-2.32e-009,0
-2.3e-009,0
-2.28e-009,0
-2.26e-009,0
-2.24e-009,0
-2.22e-009,0
-2.2e-009,0
-2.18e-009,0
-2.16e-009,0
-2.14e-009,0
-2.12e-009,0
-2.1e-009,0
-2.08e-009,0
-2.06e-009,0
-2.04e-009,0
-2.02e-009,0
-2e-009,0
-1.98e-009,0
-1.96e-009,0
-1.94e-009,0
-1.92e-009,0
-1.9e-009,0
-1.88e-009,0
-1.86e-009,0
-1.84e-009,0
-1.82e-009,0
-1.8e-009,0
-1.78e-009,0
-1.76e-009,0
-1.74e-009,0
-1.72e-009,0
-1.7e-009,0
-1.68e-009,0
-1.66e-009,0
-1.64e-009,0
-1.62e-009,0
-1.6e-009,0
-1.58e-009,0
-1.56e-009,0
-1.54e-009,0
-1.52e-009,0
-1.5e-009,0
-1.48e-009,0
-1.46e-009,0
-1.44e-009,0
-1.42e-009,0
-1.4e-009,0
-1.38e-009,0
-1.36e-009,0
-1.34e-009,0
-1.32e-009,0
-1.3e-009,0
-1.28e-009,0
-1.26e-009,0
-1.24e-009,0
-1.22e-009,0
-1.2e-009,0
-1.18e-009,0
-1.16e-009,0
-1.14e-009,0
-1.12e-009,0
-1.1e-009,0
-1.08e-009,0
-1.06e-009,0
-1.04e-009,0
-1.02e-009,1
-1e-009,1
-9.8e-010,0
-9.6e-010,0
-9.4e-010,0
-9.2e-010,0
-9e-010,1
-8.8e-010,1
-8.6e-010,0
-8.4e-010,2
-8.2e-010,1
-8e-010,1
-7.8e-010,0
-7.6e-010,0
-7.4e-010,0
-7.2e-010,1
-7e-010,1
-6.8e-010,0
-6.6e-010,1
-6.4e-010,0
-6.2e-010,1
-6e-010,0
-5.8e-010,0
-5.6e-010,0
-5.4e-010,0
-5.2e-010,0
-5e-010,0
-4.8e-010,0
-4.6e-010,0
-4.4e-010,0
-4.2e-010,2
-4e-010,0
-3.8e-010,0
-3.6e-010,1
-3.4e-010,0
-3.2e-010,2
-3e-010,3
-2.8e-010,3
-2.6e-010,4
-2.4e-010,2
-2.2e-010,3
-2e-010,4
-1.8e-010,6
-1.6e-010,5
-1.4e-010,7
-1.2e-010,2
-1e-010,11
-8e-011,17
-6e-011,17
-4e-011,12
-2e-011,24
-6.43e-024,20
2e-011,30
4e-011,24
6e-011,40
8e-011,38
1e-010,45
1.2e-010,47
1.4e-010,50
1.6e-010,71
1.8e-010,66
2e-010,64
2.2e-010,90
2.4e-010,102
2.6e-010,105
2.8e-010,118
3e-010,103
3.2e-010,151
3.4e-010,177
3.6e-010,196
3.8e-010,200
4e-010,211
4.2e-010,227
4.4e-010,255
4.6e-010,288
4.8e-010,276
5e-010,317
5.2e-010,331
5.4e-010,322
5.6e-010,348
5.8e-010,415
6e-010,399
6.2e-010,427
6.4e-010,435
6.6e-010,505
6.8e-010,499
7e-010,471
7.2e-010,549
7.4e-010,509
7.6e-010,528
7.8e-010,576
8e-010,587
8.2e-010,570
8.4e-010,644
8.6e-010,591
8.8e-010,588
9e-010,640
9.2e-010,576
9.4e-010,634
9.6e-010,590
9.8e-010,643
1e-009,562
1.02e-009,594
1.04e-009,597
1.06e-009,558
1.08e-009,559
1.1e-009,527
1.12e-009,537
1.14e-009,532
1.16e-009,487
1.18e-009,503
1.2e-009,459
1.22e-009,414
1.24e-009,415
1.26e-009,436
1.28e-009,386
1.3e-009,358
1.32e-009,292
1.34e-009,339
1.36e-009,279
1.38e-009,261
1.4e-009,251
1.42e-009,251
1.44e-009,203
1.46e-009,186
1.48e-009,171
1.5e-009,168
1.52e-009,127
1.54e-009,139
1.56e-009,124
1.58e-009,103
1.6e-009,107
1.62e-009,80
1.64e-009,87
1.66e-009,72
1.68e-009,74
1.7e-009,64
1.72e-009,49
1.74e-009,41
1.76e-009,29
1.78e-009,23
1.8e-009,22
1.82e-009,28
1.84e-009,27
1.86e-009,14
1.88e-009,20
1.9e-009,14
1.92e-009,7
1.94e-009,8
1.96e-009,5
1.98e-009,5
2e-009,13
2.02e-009,6
2.04e-009,3
2.06e-009,6
2.08e-009,5
2.1e-009,1
2.12e-009,2
2.14e-009,3
2.16e-009,0
2.18e-009,0
2.2e-009,2
2.22e-009,1
2.24e-009,0
2.26e-009,1
2.28e-009,2
2.3e-009,1
2.32e-009,0
2.34e-009,1
2.36e-009,0
2.38e-009,0
2.4e-009,0
2.42e-009,0
2.44e-009,0
2.46e-009,0
2.48e-009,0
2.5e-009,0
2.52e-009,0
2.54e-009,0
2.56e-009,0
2.58e-009,0
2.6e-009,0
2.62e-009,0
2.64e-009,0
2.66e-009,0
2.68e-009,0
2.7e-009,0
2.72e-009,0
2.74e-009,0
2.76e-009,0
2.78e-009,0
2.8e-009,0
2.82e-009,0
2.84e-009,0
2.86e-009,0
2.88e-009,0
2.9e-009,0
2.92e-009,0
2.94e-009,0
2.96e-009,0
2.98e-009,0
3e-009,0
3.02e-009,0
3.04e-009,0
3.06e-009,0
3.08e-009,0
3.1e-009,0
3.12e-009,0
3.14e-009,0
3.16e-009,0
3.18e-009,0
3.2e-009,0
3.22e-009,0
3.24e-009,0
3.26e-009,0
3.28e-009,0
3.3e-009,0
3.32e-009,0
3.34e-009,0
3.36e-009,0
3.38e-009,0
3.4e-009,0
3.42e-009,0
3.44e-009,0
3.46e-009,0
3.48e-009,0
3.5e-009,0
3.52e-009,0
3.54e-009,0
3.56e-009,0
3.58e-009,0
3.6e-009,0
3.62e-009,0
3.64e-009,0
3.66e-009,0
3.68e-009,0
3.7e-009,0
3.72e-009,0
3.74e-009,0
3.76e-009,0
3.78e-009,0
3.8e-009,0
3.82e-009,0
3.84e-009,0
3.86e-009,0
3.88e-009,0
3.9e-009,0
3.92e-009,0
3.94e-009,0
3.96e-009,0
3.98e-009,0
4e-009,0
4.02e-009,0
4.04e-009,0
4.06e-009,0
4.08e-009,0
4.1e-009,0
4.12e-009,0
4.14e-009,0
4.16e-009,0
4.18e-009,0
4.2e-009,0
4.22e-009,0
4.24e-009,0
4.26e-009,0
4.28e-009,0
4.3e-009,0
4.32e-009,0
4.34e-009,0
4.36e-009,0
4.38e-009,0
4.4e-009,0
4.42e-009,0
4.44e-009,0
4.46e-009,0
4.48e-009,0
4.5e-009,0
4.52e-009,0
4.54e-009,0
4.56e-009,0
4.58e-009,0
4.6e-009,0
4.62e-009,0
4.64e-009,0
4.66e-009,0
4.68e-009,0
4.7e-009,0
4.72e-009,0
4.74e-009,0
4.76e-009,0
4.78e-009,0
4.8e-009,0
4.82e-009,0
4.84e-009,0
4.86e-009,0
4.88e-009,0
4.9e-009,0
4.92e-009,0
4.94e-009,0
4.96e-009,0
4.98e-009,0
5e-009,0
5.02e-009,0
5.04e-009,0
5.06e-009,0
5.08e-009,0
5.1e-009,0
5.12e-009,0
5.14e-009,0
5.16e-009,0
5.18e-009,0
5.2e-009,0
5.22e-009,0
5.24e-009,0
5.26e-009,0
5.28e-009,0
5.3e-009,0
5.32e-009,0
5.34e-009,0
5.36e-009,0
5.38e-009,0
5.4e-009,0
5.42e-009,0
5.44e-009,0
5.46e-009,0
5.48e-009,0
